{
    "componentChunkName": "component---src-templates-home-js",
    "path": "/page/6",
    "result": {"data":{"allMdx":{"nodes":[{"frontmatter":{"title":"[리뷰] 밑바닥부터 만드는 인터프리터 in Go 독후감","description":"지인으로부터 추천받은 밑바닥부터 만드는 인터프리터 in Go라는 서적을 완독하였습니다. 책에 대한 전반적인 후기를 남기고자 합니다.","date":"January 15, 2023","category":"essay","tags":["book-review","go","interpreter","project"],"hero_image":{"childImageSharp":{"gatsbyImageData":{"layout":"constrained","backgroundColor":"#f8f8f8","images":{"fallback":{"src":"/static/fbee617c6e82b0c1e6a4123462cf5738/12a3e/interpreter-cover-wide.png","srcSet":"/static/fbee617c6e82b0c1e6a4123462cf5738/9d9e0/interpreter-cover-wide.png 225w,\n/static/fbee617c6e82b0c1e6a4123462cf5738/cc174/interpreter-cover-wide.png 450w,\n/static/fbee617c6e82b0c1e6a4123462cf5738/12a3e/interpreter-cover-wide.png 900w","sizes":"(min-width: 900px) 900px, 100vw"},"sources":[{"srcSet":"/static/fbee617c6e82b0c1e6a4123462cf5738/3f003/interpreter-cover-wide.webp 225w,\n/static/fbee617c6e82b0c1e6a4123462cf5738/ba134/interpreter-cover-wide.webp 450w,\n/static/fbee617c6e82b0c1e6a4123462cf5738/e7f7d/interpreter-cover-wide.webp 900w","type":"image/webp","sizes":"(min-width: 900px) 900px, 100vw"}]},"width":900,"height":450}}},"hero_image_alt":"interpreter cover image"},"id":"0747c2e0-f4c2-58b2-b570-43a80592bdc6","slug":"essay/interpreter-in-go-book-review/"},{"frontmatter":{"title":"[네트워크] 교환 시스템: 전용 회선과 교환 회선, 회선 교환과 패킷 교환","description":"교환(switching)이란 호스트들 사이에서 데이터가 전송되어야 하는 경로를 선택하는 과정을 의미합니다. 전용 회선, 교환 회선, 회선 교환, 패킷 교환, 데이터그램, 가상 회선, 메시지 교환, 셀 릴레이, 프레임 릴레이 등에 대해 알아봅시다.","date":"December 12, 2022","category":"computer-science","tags":["network","leased-line","switched-line","circuit-switching","packet-switching","virtual-circuit","datagram","frame-relay","cell-relay"],"hero_image":{"childImageSharp":{"gatsbyImageData":{"layout":"constrained","backgroundColor":"#f8f8f8","images":{"fallback":{"src":"/static/4c3c681995a992f40e832ae08f2ee5df/12a3e/switching-systems-wide.png","srcSet":"/static/4c3c681995a992f40e832ae08f2ee5df/9d9e0/switching-systems-wide.png 225w,\n/static/4c3c681995a992f40e832ae08f2ee5df/cc174/switching-systems-wide.png 450w,\n/static/4c3c681995a992f40e832ae08f2ee5df/12a3e/switching-systems-wide.png 900w,\n/static/4c3c681995a992f40e832ae08f2ee5df/4dd11/switching-systems-wide.png 1800w","sizes":"(min-width: 900px) 900px, 100vw"},"sources":[{"srcSet":"/static/4c3c681995a992f40e832ae08f2ee5df/3f003/switching-systems-wide.webp 225w,\n/static/4c3c681995a992f40e832ae08f2ee5df/ba134/switching-systems-wide.webp 450w,\n/static/4c3c681995a992f40e832ae08f2ee5df/e7f7d/switching-systems-wide.webp 900w,\n/static/4c3c681995a992f40e832ae08f2ee5df/fc420/switching-systems-wide.webp 1800w","type":"image/webp","sizes":"(min-width: 900px) 900px, 100vw"}]},"width":900,"height":450}}},"hero_image_alt":"switching systems image"},"id":"b5b0ed10-0b2c-505e-9907-56be0925348f","slug":"computer-science/network-switching-systems/"},{"frontmatter":{"title":"[알고리즘] 정렬의 분류, 삽입 정렬, 선택 정렬, 버블 정렬","description":"정렬 방식의 다양한 분류 기준과 구현은 간단하지만 비효율적인 삽입 정렬, 선택 정렬, 버블 정렬에 대해 알아봅시다.","date":"December 9, 2022","category":"computer-science","tags":["algorithm","sort","insertion-sort","selection-sort","bubble-sort"],"hero_image":{"childImageSharp":{"gatsbyImageData":{"layout":"constrained","backgroundColor":"#f8f8f8","images":{"fallback":{"src":"/static/e2c6106446fb46e3a15a1a869a39afb0/12a3e/sorting-basics-wide.png","srcSet":"/static/e2c6106446fb46e3a15a1a869a39afb0/9d9e0/sorting-basics-wide.png 225w,\n/static/e2c6106446fb46e3a15a1a869a39afb0/cc174/sorting-basics-wide.png 450w,\n/static/e2c6106446fb46e3a15a1a869a39afb0/12a3e/sorting-basics-wide.png 900w,\n/static/e2c6106446fb46e3a15a1a869a39afb0/4dd11/sorting-basics-wide.png 1800w","sizes":"(min-width: 900px) 900px, 100vw"},"sources":[{"srcSet":"/static/e2c6106446fb46e3a15a1a869a39afb0/3f003/sorting-basics-wide.webp 225w,\n/static/e2c6106446fb46e3a15a1a869a39afb0/ba134/sorting-basics-wide.webp 450w,\n/static/e2c6106446fb46e3a15a1a869a39afb0/e7f7d/sorting-basics-wide.webp 900w,\n/static/e2c6106446fb46e3a15a1a869a39afb0/fc420/sorting-basics-wide.webp 1800w","type":"image/webp","sizes":"(min-width: 900px) 900px, 100vw"}]},"width":900,"height":450}}},"hero_image_alt":"sorting basics image"},"id":"d7f5dfd9-bdcb-5c96-ae18-6149b1777ab3","slug":"computer-science/sorting-basics/"},{"frontmatter":{"title":"[이산수학] 직접 증명법, 대우 증명법, 귀류법","description":"이산수학에서 배우는 직접 증명법, 대우 증명법, 귀류법 등의 용어를 가볍게 정리합니다. 나아가 귀류법이 다른 증명방법들에 비해 지니는 한계에 대해 설명합니다.","date":"December 3, 2022","category":"computer-science","tags":["discrete-mathematics","proof","direct-proof","contraposition","proof-by-contraposition","proof-by-contradiction"],"hero_image":{"childImageSharp":{"gatsbyImageData":{"layout":"constrained","backgroundColor":"#f8f8f8","images":{"fallback":{"src":"/static/7afbbac07404ccef2dde06b82c20ce39/12a3e/math-proof-basics-wide.png","srcSet":"/static/7afbbac07404ccef2dde06b82c20ce39/9d9e0/math-proof-basics-wide.png 225w,\n/static/7afbbac07404ccef2dde06b82c20ce39/cc174/math-proof-basics-wide.png 450w,\n/static/7afbbac07404ccef2dde06b82c20ce39/12a3e/math-proof-basics-wide.png 900w,\n/static/7afbbac07404ccef2dde06b82c20ce39/4dd11/math-proof-basics-wide.png 1800w","sizes":"(min-width: 900px) 900px, 100vw"},"sources":[{"srcSet":"/static/7afbbac07404ccef2dde06b82c20ce39/3f003/math-proof-basics-wide.webp 225w,\n/static/7afbbac07404ccef2dde06b82c20ce39/ba134/math-proof-basics-wide.webp 450w,\n/static/7afbbac07404ccef2dde06b82c20ce39/e7f7d/math-proof-basics-wide.webp 900w,\n/static/7afbbac07404ccef2dde06b82c20ce39/fc420/math-proof-basics-wide.webp 1800w","type":"image/webp","sizes":"(min-width: 900px) 900px, 100vw"}]},"width":900,"height":450}}},"hero_image_alt":"math proof basics image"},"id":"5ac6a64b-9068-5b17-bbd0-4947a62949b2","slug":"computer-science/math-proof-basics/"},{"frontmatter":{"title":"[이산수학] 논리적 동치와 합성명제의 대수법칙","description":"이산수학 강의 내용을 정리합니다. 논리적 동치, 항진명제, 모순명제, 사건명제, 합성명제의 대수법칙, 보 법칙, 드 모르강의 법칙 등의 용어를 가볍게 정리하겠습니다.","date":"December 2, 2022","category":"computer-science","tags":["discrete-mathematics","logical-equivalence","de-morgan","complement-law","tautology","contradiction"],"hero_image":{"childImageSharp":{"gatsbyImageData":{"layout":"constrained","backgroundColor":"#f8f8f8","images":{"fallback":{"src":"/static/8a2a9fa5c2a1fa6021bd84063641a5ed/12a3e/math-logical-equivalence-wide.png","srcSet":"/static/8a2a9fa5c2a1fa6021bd84063641a5ed/9d9e0/math-logical-equivalence-wide.png 225w,\n/static/8a2a9fa5c2a1fa6021bd84063641a5ed/cc174/math-logical-equivalence-wide.png 450w,\n/static/8a2a9fa5c2a1fa6021bd84063641a5ed/12a3e/math-logical-equivalence-wide.png 900w,\n/static/8a2a9fa5c2a1fa6021bd84063641a5ed/4dd11/math-logical-equivalence-wide.png 1800w","sizes":"(min-width: 900px) 900px, 100vw"},"sources":[{"srcSet":"/static/8a2a9fa5c2a1fa6021bd84063641a5ed/3f003/math-logical-equivalence-wide.webp 225w,\n/static/8a2a9fa5c2a1fa6021bd84063641a5ed/ba134/math-logical-equivalence-wide.webp 450w,\n/static/8a2a9fa5c2a1fa6021bd84063641a5ed/e7f7d/math-logical-equivalence-wide.webp 900w,\n/static/8a2a9fa5c2a1fa6021bd84063641a5ed/fc420/math-logical-equivalence-wide.webp 1800w","type":"image/webp","sizes":"(min-width: 900px) 900px, 100vw"}]},"width":900,"height":450}}},"hero_image_alt":"math logical equivalence image"},"id":"142dca4d-307a-5359-ba63-85379ce35e28","slug":"computer-science/math-logical-equivalence/"},{"frontmatter":{"title":"[이산수학] 명제, 합성명제, 논리연산자, 조건명제","description":"고등학교 1학년 수학, 이산수학 강의 등에서 배우는 명제에 관한 내용을 가볍게 정리합니다. 명제, 명제 논리, 합성명제, 논리연산자, 논리부정, 논리곱, 논리합, 배타적 논리합, 조건명제, 쌍방조건 등의 용어를 가볍게 정리합니다.","date":"December 2, 2022","category":"computer-science","tags":["discrete-mathematics","proposition","logic-operator","conditional-proposition"],"hero_image":{"childImageSharp":{"gatsbyImageData":{"layout":"constrained","backgroundColor":"#f8f8f8","images":{"fallback":{"src":"/static/0bdcd0b5cd85ec53cc5425bd5f2251b8/12a3e/math-proposition-basics-wide.png","srcSet":"/static/0bdcd0b5cd85ec53cc5425bd5f2251b8/9d9e0/math-proposition-basics-wide.png 225w,\n/static/0bdcd0b5cd85ec53cc5425bd5f2251b8/cc174/math-proposition-basics-wide.png 450w,\n/static/0bdcd0b5cd85ec53cc5425bd5f2251b8/12a3e/math-proposition-basics-wide.png 900w,\n/static/0bdcd0b5cd85ec53cc5425bd5f2251b8/4dd11/math-proposition-basics-wide.png 1800w","sizes":"(min-width: 900px) 900px, 100vw"},"sources":[{"srcSet":"/static/0bdcd0b5cd85ec53cc5425bd5f2251b8/3f003/math-proposition-basics-wide.webp 225w,\n/static/0bdcd0b5cd85ec53cc5425bd5f2251b8/ba134/math-proposition-basics-wide.webp 450w,\n/static/0bdcd0b5cd85ec53cc5425bd5f2251b8/e7f7d/math-proposition-basics-wide.webp 900w,\n/static/0bdcd0b5cd85ec53cc5425bd5f2251b8/fc420/math-proposition-basics-wide.webp 1800w","type":"image/webp","sizes":"(min-width: 900px) 900px, 100vw"}]},"width":900,"height":450}}},"hero_image_alt":"math proposition basics image"},"id":"e9b066fa-6cfb-5b98-ba75-f8357d3c901b","slug":"computer-science/math-proposition-basics/"},{"frontmatter":{"title":"[알고리즘] 재귀와 반복 (feat. 팩토리얼, 거듭제곱, 피보나치 수열)","description":"팩토리얼, 거듭제곱, 피보나치 수열 예시를 통해 재귀호출에 대해 가볍게 정리합니다. 이를 통해 어떤 상황에서 재귀호출이 효율적이고, 어떤 상황에서 단순한 반복문이 더 효율적일 수 있는지 알아봅니다.","date":"November 11, 2022","category":"computer-science","tags":["algorithm","recursion","factorial","fibonacci"],"hero_image":{"childImageSharp":{"gatsbyImageData":{"layout":"constrained","backgroundColor":"#f8f8f8","images":{"fallback":{"src":"/static/80b38bb5e6d529f2a3d5e418bac0f019/12a3e/recursion-wide.png","srcSet":"/static/80b38bb5e6d529f2a3d5e418bac0f019/9d9e0/recursion-wide.png 225w,\n/static/80b38bb5e6d529f2a3d5e418bac0f019/cc174/recursion-wide.png 450w,\n/static/80b38bb5e6d529f2a3d5e418bac0f019/12a3e/recursion-wide.png 900w,\n/static/80b38bb5e6d529f2a3d5e418bac0f019/4dd11/recursion-wide.png 1800w","sizes":"(min-width: 900px) 900px, 100vw"},"sources":[{"srcSet":"/static/80b38bb5e6d529f2a3d5e418bac0f019/3f003/recursion-wide.webp 225w,\n/static/80b38bb5e6d529f2a3d5e418bac0f019/ba134/recursion-wide.webp 450w,\n/static/80b38bb5e6d529f2a3d5e418bac0f019/e7f7d/recursion-wide.webp 900w,\n/static/80b38bb5e6d529f2a3d5e418bac0f019/fc420/recursion-wide.webp 1800w","type":"image/webp","sizes":"(min-width: 900px) 900px, 100vw"}]},"width":900,"height":450}}},"hero_image_alt":"recursion image"},"id":"7ef4364e-c477-5fec-9c2c-ad1612f4103c","slug":"computer-science/recursion-and-iteration/"},{"frontmatter":{"title":"[번역] DataSource: 커넥션 풀링과 분산 트랜잭션","description":"오라클 공식 문서 'Package javax.sql'에 대한 번역입니다. DriverManager의 대체품인 DataSource가 커넥션 풀링과 분산 트랜잭션 기능을 어떻게 지원하는지에 대해 설명합니다.","date":"September 30, 2022","category":"docs","tags":["database","data-access","connection-pool","transaction","translation"],"hero_image":{"childImageSharp":{"gatsbyImageData":{"layout":"constrained","backgroundColor":"#f8f8f8","images":{"fallback":{"src":"/static/e9dd927a14d5f12af2ca73cacf2e6516/12a3e/datasource-wide.png","srcSet":"/static/e9dd927a14d5f12af2ca73cacf2e6516/9d9e0/datasource-wide.png 225w,\n/static/e9dd927a14d5f12af2ca73cacf2e6516/cc174/datasource-wide.png 450w,\n/static/e9dd927a14d5f12af2ca73cacf2e6516/12a3e/datasource-wide.png 900w","sizes":"(min-width: 900px) 900px, 100vw"},"sources":[{"srcSet":"/static/e9dd927a14d5f12af2ca73cacf2e6516/3f003/datasource-wide.webp 225w,\n/static/e9dd927a14d5f12af2ca73cacf2e6516/ba134/datasource-wide.webp 450w,\n/static/e9dd927a14d5f12af2ca73cacf2e6516/e7f7d/datasource-wide.webp 900w","type":"image/webp","sizes":"(min-width: 900px) 900px, 100vw"}]},"width":900,"height":450}}},"hero_image_alt":"datasource wide image"},"id":"cb72e5c4-3a83-59e9-9908-0f2f2736773a","slug":"docs/datasource-vs-drivermanager/"},{"frontmatter":{"title":"무중단 DB 마이그레이션과 호환성 문제 해결","description":"DB 마이그레이션 및 API 마이그레이션 작업을 무중단 배포로 수행하는 과정에서 발생할 수 있는 호환성 문제와 이에 대한 해결 방안에 대해 이야기합니다. 꼭꼭 서비스 개발 과정에서 직면한 문제를 예시로 설명합니다.","date":"September 28, 2022","category":"development","tags":["zero-downtime-deployment","flyway","database","migration"],"hero_image":{"childImageSharp":{"gatsbyImageData":{"layout":"constrained","backgroundColor":"#f8f8f8","images":{"fallback":{"src":"/static/2e4f608b139bfc66637ff7f1636146f5/12a3e/version-1.5-wide.png","srcSet":"/static/2e4f608b139bfc66637ff7f1636146f5/9d9e0/version-1.5-wide.png 225w,\n/static/2e4f608b139bfc66637ff7f1636146f5/cc174/version-1.5-wide.png 450w,\n/static/2e4f608b139bfc66637ff7f1636146f5/12a3e/version-1.5-wide.png 900w","sizes":"(min-width: 900px) 900px, 100vw"},"sources":[{"srcSet":"/static/2e4f608b139bfc66637ff7f1636146f5/3f003/version-1.5-wide.webp 225w,\n/static/2e4f608b139bfc66637ff7f1636146f5/ba134/version-1.5-wide.webp 450w,\n/static/2e4f608b139bfc66637ff7f1636146f5/e7f7d/version-1.5-wide.webp 900w","type":"image/webp","sizes":"(min-width: 900px) 900px, 100vw"}]},"width":900,"height":450}}},"hero_image_alt":"version 1.5 image"},"id":"fef39174-8d60-5f59-a604-6f7bc80e36d9","slug":"development/zero-downtime-deployment-and-compatibility/"},{"frontmatter":{"title":"[번역] 커넥션 풀 사이즈에 대하여","description":"HikariCP 공식 위키의 'About Pool Sizing' 페이지에 대한 번역입니다. 최적의 성능을 위해 데이터베이스 커넥션 풀 크기를 어떻게 설정해야 하는지에 대해 다룹니다.","date":"September 25, 2022","category":"docs","tags":["database","data-access","connection-pool","translation"],"hero_image":{"childImageSharp":{"gatsbyImageData":{"layout":"constrained","backgroundColor":"#f8f8f8","images":{"fallback":{"src":"/static/f39058da346fa14a151dc0d221255501/12a3e/connection-pool-wide.png","srcSet":"/static/f39058da346fa14a151dc0d221255501/9d9e0/connection-pool-wide.png 225w,\n/static/f39058da346fa14a151dc0d221255501/cc174/connection-pool-wide.png 450w,\n/static/f39058da346fa14a151dc0d221255501/12a3e/connection-pool-wide.png 900w","sizes":"(min-width: 900px) 900px, 100vw"},"sources":[{"srcSet":"/static/f39058da346fa14a151dc0d221255501/3f003/connection-pool-wide.webp 225w,\n/static/f39058da346fa14a151dc0d221255501/ba134/connection-pool-wide.webp 450w,\n/static/f39058da346fa14a151dc0d221255501/e7f7d/connection-pool-wide.webp 900w","type":"image/webp","sizes":"(min-width: 900px) 900px, 100vw"}]},"width":900,"height":450}}},"hero_image_alt":"connection pool image"},"id":"378afb45-df0b-5474-b190-2011c9fc35e7","slug":"docs/database-connection-pool-sizing/"}],"pageInfo":{"currentPage":6,"hasNextPage":true,"hasPreviousPage":true,"pageCount":9,"totalCount":82}}},"pageContext":{"skip":50}},
    "staticQueryHashes": ["1903006949","2193720160"]}