{
    "componentChunkName": "component---src-templates-category-js",
    "path": "/category/computer-science/page/2",
    "result": {"data":{"allMdx":{"nodes":[{"frontmatter":{"title":"[Couchbase] CAS 기반 낙관적 락킹","description":"낙관적 락킹과 비관적 락킹에 대해 정리하고, 카우치베이스에서 제공하는 CAS 기반 낙관적 락킹에 대해 실습 코드와 함께 정리해봅니다.","date":"October 10, 2023","category":"computer-science","tags":["couchbase","cas","concurrency-control","optimistic-lock"],"hero_image":{"childImageSharp":{"gatsbyImageData":{"layout":"constrained","backgroundColor":"#f8f8f8","images":{"fallback":{"src":"/static/7d22098201c7fadb5d72fb1391a883dd/12a3e/optimistic-locking-with-cas-wide.png","srcSet":"/static/7d22098201c7fadb5d72fb1391a883dd/9d9e0/optimistic-locking-with-cas-wide.png 225w,\n/static/7d22098201c7fadb5d72fb1391a883dd/cc174/optimistic-locking-with-cas-wide.png 450w,\n/static/7d22098201c7fadb5d72fb1391a883dd/12a3e/optimistic-locking-with-cas-wide.png 900w,\n/static/7d22098201c7fadb5d72fb1391a883dd/4dd11/optimistic-locking-with-cas-wide.png 1800w","sizes":"(min-width: 900px) 900px, 100vw"},"sources":[{"srcSet":"/static/7d22098201c7fadb5d72fb1391a883dd/3f003/optimistic-locking-with-cas-wide.webp 225w,\n/static/7d22098201c7fadb5d72fb1391a883dd/ba134/optimistic-locking-with-cas-wide.webp 450w,\n/static/7d22098201c7fadb5d72fb1391a883dd/e7f7d/optimistic-locking-with-cas-wide.webp 900w,\n/static/7d22098201c7fadb5d72fb1391a883dd/fc420/optimistic-locking-with-cas-wide.webp 1800w","type":"image/webp","sizes":"(min-width: 900px) 900px, 100vw"}]},"width":900,"height":450}}},"hero_image_alt":"optimistic locking with cas image"},"id":"a135440e-2f93-5edb-8f52-89f95537ee6c","slug":"computer-science/optimistic-locking-with-cas/"},{"frontmatter":{"title":"쇼트서킷의 정의와 예시","description":"쇼트서킷에 대해 검색해보면 논리연산자의 동작방식이라고 설명하는 글을 종종 찾아볼 수 있습니다. 그러나 쇼트서킷은 논리연산자에 한정된 개념이라고 보기 어렵습니다. 몇 가지 간단한 예시를 통해 쇼트서킷이라는 개념에 대해 가볍게 알아봅시다.","date":"January 29, 2023","category":"computer-science","tags":["short-circuit"],"hero_image":{"childImageSharp":{"gatsbyImageData":{"layout":"constrained","backgroundColor":"#f8f8f8","images":{"fallback":{"src":"/static/cfda061f03de401e9d82145253a135bd/12a3e/short-circuit-wide.png","srcSet":"/static/cfda061f03de401e9d82145253a135bd/9d9e0/short-circuit-wide.png 225w,\n/static/cfda061f03de401e9d82145253a135bd/cc174/short-circuit-wide.png 450w,\n/static/cfda061f03de401e9d82145253a135bd/12a3e/short-circuit-wide.png 900w","sizes":"(min-width: 900px) 900px, 100vw"},"sources":[{"srcSet":"/static/cfda061f03de401e9d82145253a135bd/3f003/short-circuit-wide.webp 225w,\n/static/cfda061f03de401e9d82145253a135bd/ba134/short-circuit-wide.webp 450w,\n/static/cfda061f03de401e9d82145253a135bd/e7f7d/short-circuit-wide.webp 900w","type":"image/webp","sizes":"(min-width: 900px) 900px, 100vw"}]},"width":900,"height":450}}},"hero_image_alt":"short circuit image"},"id":"6d9b0241-f24b-5be3-b3b0-a3f5e5ff5f26","slug":"computer-science/short-circuit/"},{"frontmatter":{"title":"[OOP] SOLID 압축 정리본","description":"우아한테크코스 레벨 인터뷰 준비 과정에서 작성한 SOLID에 대한 개념 정리이다. 너무 깊지도, 얕지도 않도록 최소한의 예제만을 활용한 압축본을 만드는 것을 목표로 하였다. 오브젝트 스터디 종료 후 수정할 계획이다.","date":"April 26, 2022","category":"computer-science","tags":["oop","srp","ocp","lsp","isp","dip"],"hero_image":{"childImageSharp":{"gatsbyImageData":{"layout":"constrained","backgroundColor":"#f8f8f8","images":{"fallback":{"src":"/static/782dfc0465da57291e95692f6860f8f8/12a3e/solid-wide.png","srcSet":"/static/782dfc0465da57291e95692f6860f8f8/9d9e0/solid-wide.png 225w,\n/static/782dfc0465da57291e95692f6860f8f8/cc174/solid-wide.png 450w,\n/static/782dfc0465da57291e95692f6860f8f8/12a3e/solid-wide.png 900w","sizes":"(min-width: 900px) 900px, 100vw"},"sources":[{"srcSet":"/static/782dfc0465da57291e95692f6860f8f8/3f003/solid-wide.webp 225w,\n/static/782dfc0465da57291e95692f6860f8f8/ba134/solid-wide.webp 450w,\n/static/782dfc0465da57291e95692f6860f8f8/e7f7d/solid-wide.webp 900w","type":"image/webp","sizes":"(min-width: 900px) 900px, 100vw"}]},"width":900,"height":450}}},"hero_image_alt":"solid image"},"id":"31c53484-fab6-5a85-866c-46c21dd3e22c","slug":"computer-science/solid-basics/"},{"frontmatter":{"title":"클래스와 프로토타입에 담긴 철학","description":"우테코 강의 중 클래스라는 개념이 플라톤의 이데아 개념에 기반을 두고 있다는 내용이 나왔다. 다만, 코치님이 이 부분에 대해 너무 가볍게 다룬 것 같아 정말 마음이 아팠다. 그런 의미에서 그 분이 쏘아올린 작은 공을 살짝 리시브해보고자 한다.","date":"February 17, 2022","category":"computer-science","tags":["oop","philosophy","java","javascript"],"hero_image":{"childImageSharp":{"gatsbyImageData":{"layout":"constrained","backgroundColor":"#080808","images":{"fallback":{"src":"/static/5c5b393bfd433e110e2ef9c24ca5ace1/ba2c4/plato-wittgenstein.jpg","srcSet":"/static/5c5b393bfd433e110e2ef9c24ca5ace1/70c4d/plato-wittgenstein.jpg 185w,\n/static/5c5b393bfd433e110e2ef9c24ca5ace1/bfbf1/plato-wittgenstein.jpg 370w,\n/static/5c5b393bfd433e110e2ef9c24ca5ace1/ba2c4/plato-wittgenstein.jpg 740w","sizes":"(min-width: 740px) 740px, 100vw"},"sources":[{"srcSet":"/static/5c5b393bfd433e110e2ef9c24ca5ace1/a3685/plato-wittgenstein.webp 185w,\n/static/5c5b393bfd433e110e2ef9c24ca5ace1/3c007/plato-wittgenstein.webp 370w,\n/static/5c5b393bfd433e110e2ef9c24ca5ace1/177c9/plato-wittgenstein.webp 740w","type":"image/webp","sizes":"(min-width: 740px) 740px, 100vw"}]},"width":900,"height":450}}},"hero_image_alt":"plato vs wittgenstein image"},"id":"a82b0dda-ae9d-5433-8cba-ee1668edced3","slug":"computer-science/class-vs-prototype-philosophy/"},{"frontmatter":{"title":"메모리 회로의 핵심: 플립플롭의 이해","description":"오늘은 입력값으로부터 0과 1이라는 출력값을 만들어내고, 외부로부터의 입력이 사라지더라도 그 출력값을 그대로 유지하는 구조의 회로에 대해 이야기해보고자 한다. 다양한 구조의 래치를 차근차근 살펴보며 최종적으로 D 플립플롭을 자세히 이해해보자.","date":"January 13, 2022","category":"computer-science","tags":["memory","computer","computer-architecture","hardware","circuit"],"hero_image":{"childImageSharp":{"gatsbyImageData":{"layout":"constrained","backgroundColor":"#f8f8f8","images":{"fallback":{"src":"/static/76f2f1dbdf87fa66ca1d8880c028a7f6/12a3e/d-flip-flop-wide.png","srcSet":"/static/76f2f1dbdf87fa66ca1d8880c028a7f6/9d9e0/d-flip-flop-wide.png 225w,\n/static/76f2f1dbdf87fa66ca1d8880c028a7f6/cc174/d-flip-flop-wide.png 450w,\n/static/76f2f1dbdf87fa66ca1d8880c028a7f6/12a3e/d-flip-flop-wide.png 900w","sizes":"(min-width: 900px) 900px, 100vw"},"sources":[{"srcSet":"/static/76f2f1dbdf87fa66ca1d8880c028a7f6/3f003/d-flip-flop-wide.webp 225w,\n/static/76f2f1dbdf87fa66ca1d8880c028a7f6/ba134/d-flip-flop-wide.webp 450w,\n/static/76f2f1dbdf87fa66ca1d8880c028a7f6/e7f7d/d-flip-flop-wide.webp 900w","type":"image/webp","sizes":"(min-width: 900px) 900px, 100vw"}]},"width":900,"height":450}}},"hero_image_alt":"D flip flop image"},"id":"c5cb51f5-ac6f-5e56-a9ec-3b7063281488","slug":"computer-science/latch-and-flip-flop/"},{"frontmatter":{"title":"아날로그에서 디지털로: 회로의 기초","description":"회로란 안정성을 위해 현실에 존재하는 아날로그적인 자극을 디지털적인 동작으로 바꿔주는 도구라고 볼 수 있다. 이산적인 데이터를 일관된 논리에 따라 적절하게 활용하면 매번 동일한 입력값에 대해 동일한 출력값을 안정적으로 도출해낼 수 있게 된다.","date":"January 10, 2022","category":"computer-science","tags":["computer","computer-architecture","hardware","circuit"],"hero_image":{"childImageSharp":{"gatsbyImageData":{"layout":"constrained","backgroundColor":"#f8f8f8","images":{"fallback":{"src":"/static/1a66d612516cb42d0865579e59146570/12a3e/clipping-wide.png","srcSet":"/static/1a66d612516cb42d0865579e59146570/9d9e0/clipping-wide.png 225w,\n/static/1a66d612516cb42d0865579e59146570/cc174/clipping-wide.png 450w,\n/static/1a66d612516cb42d0865579e59146570/12a3e/clipping-wide.png 900w","sizes":"(min-width: 900px) 900px, 100vw"},"sources":[{"srcSet":"/static/1a66d612516cb42d0865579e59146570/3f003/clipping-wide.webp 225w,\n/static/1a66d612516cb42d0865579e59146570/ba134/clipping-wide.webp 450w,\n/static/1a66d612516cb42d0865579e59146570/e7f7d/clipping-wide.webp 900w","type":"image/webp","sizes":"(min-width: 900px) 900px, 100vw"}]},"width":900,"height":450}}},"hero_image_alt":"transfer function clipping image"},"id":"549dc124-d678-5727-9101-6d3350199d44","slug":"computer-science/analog-and-digital/"},{"frontmatter":{"title":"컴퓨터는 어떻게 사고하는가: 비트와 논리연산","description":"논리 게이트란 입력값들에 대해 일정한 불리언 연산을 수행한 결과를 출력하는 장치라고 볼 수 있다. 기본적으로 AND, OR, XOR, NOT 연산을 수행하며, 이러한 게이트가 기본 단위로 모여 더욱 복잡한 기능을 수행하는 회로를 구성하게 된다.","date":"January 6, 2022","category":"computer-science","tags":["computer","computer-architecture","hardware","circuit","logic-operation"],"hero_image":{"childImageSharp":{"gatsbyImageData":{"layout":"constrained","backgroundColor":"#f8f8f8","images":{"fallback":{"src":"/static/b41c88015825eb7c26fe8d2a67ee5d9b/12a3e/boolean-add-wide.png","srcSet":"/static/b41c88015825eb7c26fe8d2a67ee5d9b/9d9e0/boolean-add-wide.png 225w,\n/static/b41c88015825eb7c26fe8d2a67ee5d9b/cc174/boolean-add-wide.png 450w,\n/static/b41c88015825eb7c26fe8d2a67ee5d9b/12a3e/boolean-add-wide.png 900w","sizes":"(min-width: 900px) 900px, 100vw"},"sources":[{"srcSet":"/static/b41c88015825eb7c26fe8d2a67ee5d9b/3f003/boolean-add-wide.webp 225w,\n/static/b41c88015825eb7c26fe8d2a67ee5d9b/ba134/boolean-add-wide.webp 450w,\n/static/b41c88015825eb7c26fe8d2a67ee5d9b/e7f7d/boolean-add-wide.webp 900w","type":"image/webp","sizes":"(min-width: 900px) 900px, 100vw"}]},"width":900,"height":450}}},"hero_image_alt":"adding numbers with boolean operation image"},"id":"1eb2b53f-f672-5c16-b96d-eef8dabe4d60","slug":"computer-science/bit-and-logic-operation/"}],"pageInfo":{"currentPage":2,"hasNextPage":false,"hasPreviousPage":true,"pageCount":2,"totalCount":17}}},"pageContext":{"slug":"computer-science","ko":"컴퓨터과학","en":"Computer Science","skip":10}},
    "staticQueryHashes": ["1903006949","2193720160"]}