{
    "componentChunkName": "component---src-templates-category-js",
    "path": "/category/development/page/3",
    "result": {"data":{"allMdx":{"nodes":[{"frontmatter":{"title":"[Java] 데코레이터 패턴: 구현과 한계","description":"데코레이터 패턴을 통해 특정한 데이터에 대해 일련의 작업을 순차적으로 적용하는 구조를 만들어보자. 그리고 이러한 코드의 한계에 대하여 논해보자. 유연한 코드의 이면에는 구조의 복잡성이 자리잡고 있다.","date":"May 26, 2022","category":"development","tags":["java","decorator-pattern","design-pattern"],"hero_image":{"childImageSharp":{"gatsbyImageData":{"layout":"constrained","backgroundColor":"#282828","images":{"fallback":{"src":"/static/92b247c93aece14a68001c0de2d469e0/12a3e/decorator-pattern-wide.png","srcSet":"/static/92b247c93aece14a68001c0de2d469e0/9d9e0/decorator-pattern-wide.png 225w,\n/static/92b247c93aece14a68001c0de2d469e0/cc174/decorator-pattern-wide.png 450w,\n/static/92b247c93aece14a68001c0de2d469e0/12a3e/decorator-pattern-wide.png 900w","sizes":"(min-width: 900px) 900px, 100vw"},"sources":[{"srcSet":"/static/92b247c93aece14a68001c0de2d469e0/3f003/decorator-pattern-wide.webp 225w,\n/static/92b247c93aece14a68001c0de2d469e0/ba134/decorator-pattern-wide.webp 450w,\n/static/92b247c93aece14a68001c0de2d469e0/e7f7d/decorator-pattern-wide.webp 900w","type":"image/webp","sizes":"(min-width: 900px) 900px, 100vw"}]},"width":900,"height":450}}},"hero_image_alt":"decorator pattern image"},"id":"c9b13bab-4f76-5fe3-852b-52ce33f4edb4","slug":"development/decorator-pattern-implementation-and-limitations/"},{"frontmatter":{"title":"[Java] 어댑터 패턴과 OCP","description":"어댑터 패턴을 통해 외부 라이브러리에 대한 의존성을 도메인으로부터 분리하는 과정을 다룬다. 추상화에 대한 의존과 객체의 사용과 생성의 분리라는 관점에서 OCP에 부합하도록 클라이언트 코드를 리팩토링해보자.","date":"May 25, 2022","category":"development","tags":["java","adapter","design-pattern","ocp"],"hero_image":{"childImageSharp":{"gatsbyImageData":{"layout":"constrained","backgroundColor":"#282828","images":{"fallback":{"src":"/static/386828e1664f43a583c6ae4b70a678fc/12a3e/adapter-pattern-wide.png","srcSet":"/static/386828e1664f43a583c6ae4b70a678fc/9d9e0/adapter-pattern-wide.png 225w,\n/static/386828e1664f43a583c6ae4b70a678fc/cc174/adapter-pattern-wide.png 450w,\n/static/386828e1664f43a583c6ae4b70a678fc/12a3e/adapter-pattern-wide.png 900w","sizes":"(min-width: 900px) 900px, 100vw"},"sources":[{"srcSet":"/static/386828e1664f43a583c6ae4b70a678fc/3f003/adapter-pattern-wide.webp 225w,\n/static/386828e1664f43a583c6ae4b70a678fc/ba134/adapter-pattern-wide.webp 450w,\n/static/386828e1664f43a583c6ae4b70a678fc/e7f7d/adapter-pattern-wide.webp 900w","type":"image/webp","sizes":"(min-width: 900px) 900px, 100vw"}]},"width":900,"height":450}}},"hero_image_alt":"adapter pattern image"},"id":"9f8b3080-ccce-59ad-af78-88f90d17b374","slug":"development/adapter-pattern-and-ocp/"},{"frontmatter":{"title":"[Java] JGraphT 라이브러리를 통한 최단경로 조회","description":"해당 게시글은 jgrapht 라이브러리를 활용하는 다양한 방법에 대한 예시 코드를 제공한다. 특히 기존 도메인을 수정하지 않고 최단경로를 구간들의 목록으로 반환받는 방법에 대한 탐구 과정을 단계별로 정리하였다.","date":"May 24, 2022","category":"development","tags":["java","jgrapht","algorithm","proxy"],"hero_image":{"childImageSharp":{"gatsbyImageData":{"layout":"constrained","backgroundColor":"#f8f8f8","images":{"fallback":{"src":"/static/5e50e0a8f4a1c7580f11aa380feb0308/12a3e/jgrapht-wide.png","srcSet":"/static/5e50e0a8f4a1c7580f11aa380feb0308/9d9e0/jgrapht-wide.png 225w,\n/static/5e50e0a8f4a1c7580f11aa380feb0308/cc174/jgrapht-wide.png 450w,\n/static/5e50e0a8f4a1c7580f11aa380feb0308/12a3e/jgrapht-wide.png 900w","sizes":"(min-width: 900px) 900px, 100vw"},"sources":[{"srcSet":"/static/5e50e0a8f4a1c7580f11aa380feb0308/3f003/jgrapht-wide.webp 225w,\n/static/5e50e0a8f4a1c7580f11aa380feb0308/ba134/jgrapht-wide.webp 450w,\n/static/5e50e0a8f4a1c7580f11aa380feb0308/e7f7d/jgrapht-wide.webp 900w","type":"image/webp","sizes":"(min-width: 900px) 900px, 100vw"}]},"width":900,"height":450}}},"hero_image_alt":"jgrapht image"},"id":"f390eb87-c39d-5091-89d3-606513f0def8","slug":"development/finding-shortest-path-with-jgrapht/"},{"frontmatter":{"title":"[보안] 비밀번호 암호화: 해쉬와 솔트","description":"DB에 비밀번호를 변형시킨 값을 저장해놓으면 DB 정보가 외부에 유출되더라도 이를 쉽게 악용하기 힘들어진다. 솔트와 해쉬 함수를 활용하여 비밀번호의 해쉬 값을 생성하고 이를 DB에 저장하는 기법을 생각해볼 수 있다.","date":"April 25, 2022","category":"development","tags":["db","hash","security","authentication"],"hero_image":{"childImageSharp":{"gatsbyImageData":{"layout":"constrained","backgroundColor":"#f8f8f8","images":{"fallback":{"src":"/static/a0b1a282a327616498079b1e732fe0d1/12a3e/hashing-password-wide.png","srcSet":"/static/a0b1a282a327616498079b1e732fe0d1/9d9e0/hashing-password-wide.png 225w,\n/static/a0b1a282a327616498079b1e732fe0d1/cc174/hashing-password-wide.png 450w,\n/static/a0b1a282a327616498079b1e732fe0d1/12a3e/hashing-password-wide.png 900w","sizes":"(min-width: 900px) 900px, 100vw"},"sources":[{"srcSet":"/static/a0b1a282a327616498079b1e732fe0d1/3f003/hashing-password-wide.webp 225w,\n/static/a0b1a282a327616498079b1e732fe0d1/ba134/hashing-password-wide.webp 450w,\n/static/a0b1a282a327616498079b1e732fe0d1/e7f7d/hashing-password-wide.webp 900w","type":"image/webp","sizes":"(min-width: 900px) 900px, 100vw"}]},"width":900,"height":450}}},"hero_image_alt":"hashing password image"},"id":"6976b79c-69ee-531c-9bc9-a19004687749","slug":"development/hashing-password-with-salt/"},{"frontmatter":{"title":"[Java] 스트림: 지연 연산과 최적화","description":"Stream API의 주요 특성인 지연 연산의 의미, 그리고 이를 기반으로 일어나는 루프퓨전과 쇼트서킷에 대해 알아보자. Stream API가 스트림이라고 불릴 수 있는 원인이 바로 여기에 있는 것으로 보인다.","date":"April 13, 2022","category":"development","tags":["java","modern-java","stream","lazy","short-circuit"],"hero_image":{"childImageSharp":{"gatsbyImageData":{"layout":"constrained","backgroundColor":"#f8f8f8","images":{"fallback":{"src":"/static/4ec343a30ea3d448be1f1cc966c7efbe/12a3e/lazy-stream-wide.png","srcSet":"/static/4ec343a30ea3d448be1f1cc966c7efbe/9d9e0/lazy-stream-wide.png 225w,\n/static/4ec343a30ea3d448be1f1cc966c7efbe/cc174/lazy-stream-wide.png 450w,\n/static/4ec343a30ea3d448be1f1cc966c7efbe/12a3e/lazy-stream-wide.png 900w","sizes":"(min-width: 900px) 900px, 100vw"},"sources":[{"srcSet":"/static/4ec343a30ea3d448be1f1cc966c7efbe/3f003/lazy-stream-wide.webp 225w,\n/static/4ec343a30ea3d448be1f1cc966c7efbe/ba134/lazy-stream-wide.webp 450w,\n/static/4ec343a30ea3d448be1f1cc966c7efbe/e7f7d/lazy-stream-wide.webp 900w","type":"image/webp","sizes":"(min-width: 900px) 900px, 100vw"}]},"width":900,"height":450}}},"hero_image_alt":"lazy stream image"},"id":"b2d9b6b1-1451-572f-be95-5668ca721bdc","slug":"development/stream-lazy-evaluation/"},{"frontmatter":{"title":"[Java] 스트림 연산의 분류","description":"스트림 파이프라인은 중간연산과 최종연산으로 구성된다. 스트림 연산은 다시 내부적으로 관리되는 상태의 유무와 상태의 크기에 따라서도 구분된다. 이러한 분류는 Stream API의 내부 동작을 이해하는 데 도움이 된다.","date":"April 11, 2022","category":"development","tags":["java","stream","modern-java"],"hero_image":{"childImageSharp":{"gatsbyImageData":{"layout":"constrained","backgroundColor":"#f8f8f8","images":{"fallback":{"src":"/static/017d1b3e02bc8ee806df0a3ed73ae93f/12a3e/stream-operations-wide.png","srcSet":"/static/017d1b3e02bc8ee806df0a3ed73ae93f/9d9e0/stream-operations-wide.png 225w,\n/static/017d1b3e02bc8ee806df0a3ed73ae93f/cc174/stream-operations-wide.png 450w,\n/static/017d1b3e02bc8ee806df0a3ed73ae93f/12a3e/stream-operations-wide.png 900w","sizes":"(min-width: 900px) 900px, 100vw"},"sources":[{"srcSet":"/static/017d1b3e02bc8ee806df0a3ed73ae93f/3f003/stream-operations-wide.webp 225w,\n/static/017d1b3e02bc8ee806df0a3ed73ae93f/ba134/stream-operations-wide.webp 450w,\n/static/017d1b3e02bc8ee806df0a3ed73ae93f/e7f7d/stream-operations-wide.webp 900w","type":"image/webp","sizes":"(min-width: 900px) 900px, 100vw"}]},"width":900,"height":450}}},"hero_image_alt":"stream operations image"},"id":"3be77123-906e-5c04-bdf7-f53661826dc8","slug":"development/stream-operations/"},{"frontmatter":{"title":"[Java] 값 객체: 동등성과 동일성","description":"동등성과 동일성 개념을 토대로 값과 객체를 비교해보고, 값 객체에 대해 이해해보자. 로또 번호와 위치 정보를 값 객체로 구현해보고, 체스말의 이동경로 검증 예시를 통해 값 객체가 지니는 이점에 대해 알아보자.","date":"April 9, 2022","category":"development","tags":["java","value-object","object","oop"],"hero_image":{"childImageSharp":{"gatsbyImageData":{"layout":"constrained","backgroundColor":"#f8f8f8","images":{"fallback":{"src":"/static/7b7817b3ed441a4700ba4673be9e260a/12a3e/value-object-wide.png","srcSet":"/static/7b7817b3ed441a4700ba4673be9e260a/9d9e0/value-object-wide.png 225w,\n/static/7b7817b3ed441a4700ba4673be9e260a/cc174/value-object-wide.png 450w,\n/static/7b7817b3ed441a4700ba4673be9e260a/12a3e/value-object-wide.png 900w","sizes":"(min-width: 900px) 900px, 100vw"},"sources":[{"srcSet":"/static/7b7817b3ed441a4700ba4673be9e260a/3f003/value-object-wide.webp 225w,\n/static/7b7817b3ed441a4700ba4673be9e260a/ba134/value-object-wide.webp 450w,\n/static/7b7817b3ed441a4700ba4673be9e260a/e7f7d/value-object-wide.webp 900w","type":"image/webp","sizes":"(min-width: 900px) 900px, 100vw"}]},"width":900,"height":450}}},"hero_image_alt":"value object image"},"id":"ada49ef6-4774-589e-99bc-5a96cd5cef07","slug":"development/value-object/"},{"frontmatter":{"title":"[Java] 스트림 기초: I/O Stream과 Stream API","description":"Stream API을 통해 생성되는 스트림은 말 그대로 '데이터의 흐름'이다. 이 흐름이라는 개념에 포함된 다양한 의미 중 가장 중요한 것은 스트림이 흘러가는 과정에서 데이터가 순차적으로 사용되고 사라진다는 점이다.","date":"March 21, 2022","category":"development","tags":["java","stream","modern-java"],"hero_image":{"childImageSharp":{"gatsbyImageData":{"layout":"constrained","backgroundColor":"#f8f8f8","images":{"fallback":{"src":"/static/c14bda83973ba8919bd7034a4392c8ac/12a3e/java-stream-wide.png","srcSet":"/static/c14bda83973ba8919bd7034a4392c8ac/9d9e0/java-stream-wide.png 225w,\n/static/c14bda83973ba8919bd7034a4392c8ac/cc174/java-stream-wide.png 450w,\n/static/c14bda83973ba8919bd7034a4392c8ac/12a3e/java-stream-wide.png 900w","sizes":"(min-width: 900px) 900px, 100vw"},"sources":[{"srcSet":"/static/c14bda83973ba8919bd7034a4392c8ac/3f003/java-stream-wide.webp 225w,\n/static/c14bda83973ba8919bd7034a4392c8ac/ba134/java-stream-wide.webp 450w,\n/static/c14bda83973ba8919bd7034a4392c8ac/e7f7d/java-stream-wide.webp 900w","type":"image/webp","sizes":"(min-width: 900px) 900px, 100vw"}]},"width":900,"height":450}}},"hero_image_alt":"java stream image"},"id":"bd9cc134-41dc-5942-8baa-e7411118b121","slug":"development/stream-and-java/"},{"frontmatter":{"title":"[Java] 람다: 람다 캡처링","description":"람다 캡처링이란 파라미터로 넘겨받은 데이터가 아닌 람다식 외부에서 선언된 변수를 참조하는 변수를 람다식 내부에 저장하고 사용하는 동작을 의미한다. 이번 글에서는 이를 둘러싼 제약사항 및 주의사항을 다루어보고자 한다.","date":"March 14, 2022","category":"development","tags":["java","lambda","modern-java","functional-programming"],"hero_image":{"childImageSharp":{"gatsbyImageData":{"layout":"constrained","backgroundColor":"#f8f8f8","images":{"fallback":{"src":"/static/6a213864b38d5082b76b6d72aaa50534/12a3e/lambda-capturing-wide.png","srcSet":"/static/6a213864b38d5082b76b6d72aaa50534/9d9e0/lambda-capturing-wide.png 225w,\n/static/6a213864b38d5082b76b6d72aaa50534/cc174/lambda-capturing-wide.png 450w,\n/static/6a213864b38d5082b76b6d72aaa50534/12a3e/lambda-capturing-wide.png 900w","sizes":"(min-width: 900px) 900px, 100vw"},"sources":[{"srcSet":"/static/6a213864b38d5082b76b6d72aaa50534/3f003/lambda-capturing-wide.webp 225w,\n/static/6a213864b38d5082b76b6d72aaa50534/ba134/lambda-capturing-wide.webp 450w,\n/static/6a213864b38d5082b76b6d72aaa50534/e7f7d/lambda-capturing-wide.webp 900w","type":"image/webp","sizes":"(min-width: 900px) 900px, 100vw"}]},"width":900,"height":450}}},"hero_image_alt":"lambda capturing image"},"id":"95d3bb51-17a5-55ff-a659-0f0d765455d9","slug":"development/lambda-capturing-and-free-variable/"},{"frontmatter":{"title":"[JS] 프록시 패턴과 프런트엔드 커스텀 캐쉬 구현","description":"애플리케이션 외부 대상을 대리자를 통해 간접적으로 접근하는 방식으로 프록시 패턴이 사용될 수 있다. 대리자는 외부 서버로부터 받은 데이터와 그 유효기간을 캐쉬의 형태로 관리함으로써 서버에 대한 접근 빈도를 줄이고 과한 리소스 낭비를 절감할 수 있다.","date":"February 5, 2022","category":"development","tags":["proxy","design-pattern","cache","web","javascript"],"hero_image":{"childImageSharp":{"gatsbyImageData":{"layout":"constrained","backgroundColor":"#181828","images":{"fallback":{"src":"/static/0ddf8960f7822926e01c4124f7615c90/12a3e/proxy-pattern-wide.png","srcSet":"/static/0ddf8960f7822926e01c4124f7615c90/9d9e0/proxy-pattern-wide.png 225w,\n/static/0ddf8960f7822926e01c4124f7615c90/cc174/proxy-pattern-wide.png 450w,\n/static/0ddf8960f7822926e01c4124f7615c90/12a3e/proxy-pattern-wide.png 900w","sizes":"(min-width: 900px) 900px, 100vw"},"sources":[{"srcSet":"/static/0ddf8960f7822926e01c4124f7615c90/3f003/proxy-pattern-wide.webp 225w,\n/static/0ddf8960f7822926e01c4124f7615c90/ba134/proxy-pattern-wide.webp 450w,\n/static/0ddf8960f7822926e01c4124f7615c90/e7f7d/proxy-pattern-wide.webp 900w","type":"image/webp","sizes":"(min-width: 900px) 900px, 100vw"}]},"width":900,"height":450}}},"hero_image_alt":"proxy pattern image"},"id":"d05af6cc-0cbe-5b2b-b382-89dfff81b56e","slug":"development/proxy-and-frontend-custom-cache/"}],"pageInfo":{"currentPage":3,"hasNextPage":true,"hasPreviousPage":true,"pageCount":4,"totalCount":31}}},"pageContext":{"slug":"development","ko":"개발","en":"Development","skip":20}},
    "staticQueryHashes": ["1903006949","2193720160"]}