{
    "componentChunkName": "component---src-templates-home-js",
    "path": "/page/5",
    "result": {"data":{"allMdx":{"nodes":[{"frontmatter":{"title":"[Go] 객체 조합과 필드의 종류","description":"익명 필드, exported/unexported 필드 등 다른 타입의 객체를 조합하는 방식에 따라 발생하는 차이점에 대해 상속 대신 조합이라는 맥락에서 비교합니다.","date":"September 17, 2023","category":"development","tags":["go","oop","composition"],"hero_image":{"childImageSharp":{"gatsbyImageData":{"layout":"constrained","backgroundColor":"#f8f8f8","images":{"fallback":{"src":"/static/b3bae6d959b7213ffd985cc4223edbcc/12a3e/composition-in-go-wide.png","srcSet":"/static/b3bae6d959b7213ffd985cc4223edbcc/9d9e0/composition-in-go-wide.png 225w,\n/static/b3bae6d959b7213ffd985cc4223edbcc/cc174/composition-in-go-wide.png 450w,\n/static/b3bae6d959b7213ffd985cc4223edbcc/12a3e/composition-in-go-wide.png 900w,\n/static/b3bae6d959b7213ffd985cc4223edbcc/4dd11/composition-in-go-wide.png 1800w","sizes":"(min-width: 900px) 900px, 100vw"},"sources":[{"srcSet":"/static/b3bae6d959b7213ffd985cc4223edbcc/3f003/composition-in-go-wide.webp 225w,\n/static/b3bae6d959b7213ffd985cc4223edbcc/ba134/composition-in-go-wide.webp 450w,\n/static/b3bae6d959b7213ffd985cc4223edbcc/e7f7d/composition-in-go-wide.webp 900w,\n/static/b3bae6d959b7213ffd985cc4223edbcc/fc420/composition-in-go-wide.webp 1800w","type":"image/webp","sizes":"(min-width: 900px) 900px, 100vw"}]},"width":900,"height":450}}},"hero_image_alt":"composition in go image"},"id":"1d28bbcc-306c-5983-b452-f225321d6a49","slug":"development/composition-in-go/"},{"frontmatter":{"title":"[OOP] 상속 대신 조합","description":"예시 코드를 통해 코드 재사용 목적의 상속의 문제점을 파악하고, 서브클래싱, 서브타이핑, 리스코프 치환원칙 등의 키워드를 통해 상속 대신 조합이라는 표현에 대해 정리하겠습니다.","date":"September 16, 2023","category":"development","tags":["oop","lsp","inheritance","composition"],"hero_image":{"childImageSharp":{"gatsbyImageData":{"layout":"constrained","backgroundColor":"#f8f8f8","images":{"fallback":{"src":"/static/dbd62544f8d85c24933ba484afc0eca0/12a3e/composition-over-inheritance-wide.png","srcSet":"/static/dbd62544f8d85c24933ba484afc0eca0/9d9e0/composition-over-inheritance-wide.png 225w,\n/static/dbd62544f8d85c24933ba484afc0eca0/cc174/composition-over-inheritance-wide.png 450w,\n/static/dbd62544f8d85c24933ba484afc0eca0/12a3e/composition-over-inheritance-wide.png 900w,\n/static/dbd62544f8d85c24933ba484afc0eca0/4dd11/composition-over-inheritance-wide.png 1800w","sizes":"(min-width: 900px) 900px, 100vw"},"sources":[{"srcSet":"/static/dbd62544f8d85c24933ba484afc0eca0/3f003/composition-over-inheritance-wide.webp 225w,\n/static/dbd62544f8d85c24933ba484afc0eca0/ba134/composition-over-inheritance-wide.webp 450w,\n/static/dbd62544f8d85c24933ba484afc0eca0/e7f7d/composition-over-inheritance-wide.webp 900w,\n/static/dbd62544f8d85c24933ba484afc0eca0/fc420/composition-over-inheritance-wide.webp 1800w","type":"image/webp","sizes":"(min-width: 900px) 900px, 100vw"}]},"width":900,"height":450}}},"hero_image_alt":"composition over inheritance image"},"id":"331f0bbf-2787-53b1-a922-62e0526b3efa","slug":"development/composition-over-inheritance/"},{"frontmatter":{"title":"[Go] 구조체 캡슐화하기","description":"캡슐화의 정의를 설명하고 Go 언어에서 캡슐화를 구현할 수 있는 방법과 한계에 대해 다뤄보겠습니다. 예제 코드를 통해 Go 구조체의 내부 구현을 숨기는 방안을 단계적으로 정리하겠습니다.","date":"September 13, 2023","category":"development","tags":["go","oop","encapsulation"],"hero_image":{"childImageSharp":{"gatsbyImageData":{"layout":"constrained","backgroundColor":"#f8f8f8","images":{"fallback":{"src":"/static/54ed42ec8080265f23681e5b2b1e6673/12a3e/encapsulating-go-structs-wide.png","srcSet":"/static/54ed42ec8080265f23681e5b2b1e6673/9d9e0/encapsulating-go-structs-wide.png 225w,\n/static/54ed42ec8080265f23681e5b2b1e6673/cc174/encapsulating-go-structs-wide.png 450w,\n/static/54ed42ec8080265f23681e5b2b1e6673/12a3e/encapsulating-go-structs-wide.png 900w,\n/static/54ed42ec8080265f23681e5b2b1e6673/4dd11/encapsulating-go-structs-wide.png 1800w","sizes":"(min-width: 900px) 900px, 100vw"},"sources":[{"srcSet":"/static/54ed42ec8080265f23681e5b2b1e6673/3f003/encapsulating-go-structs-wide.webp 225w,\n/static/54ed42ec8080265f23681e5b2b1e6673/ba134/encapsulating-go-structs-wide.webp 450w,\n/static/54ed42ec8080265f23681e5b2b1e6673/e7f7d/encapsulating-go-structs-wide.webp 900w,\n/static/54ed42ec8080265f23681e5b2b1e6673/fc420/encapsulating-go-structs-wide.webp 1800w","type":"image/webp","sizes":"(min-width: 900px) 900px, 100vw"}]},"width":900,"height":450}}},"hero_image_alt":"encapsulating go structs image"},"id":"9b5fe3d8-b384-53f6-8752-e695e594acad","slug":"development/encapsulating-go-structs/"},{"frontmatter":{"title":"[Go] 벤치마크 테스트로 성능 측정하기","description":"Go 언어에서 성능 측정을 위해 제공하는 벤치마크 테스트에 대해 간략히 정리하겠습니다. Set 자료구조를 다양한 방식으로 구현하고 각 구현체의 성능을 비교해보고자 합니다.","date":"August 13, 2023","category":"development","tags":["go","test","benchmark"],"hero_image":{"childImageSharp":{"gatsbyImageData":{"layout":"constrained","backgroundColor":"#f8f8f8","images":{"fallback":{"src":"/static/5b6908692dce06098a861d6956888d8e/12a3e/benchmark-wide.png","srcSet":"/static/5b6908692dce06098a861d6956888d8e/9d9e0/benchmark-wide.png 225w,\n/static/5b6908692dce06098a861d6956888d8e/cc174/benchmark-wide.png 450w,\n/static/5b6908692dce06098a861d6956888d8e/12a3e/benchmark-wide.png 900w,\n/static/5b6908692dce06098a861d6956888d8e/4dd11/benchmark-wide.png 1800w","sizes":"(min-width: 900px) 900px, 100vw"},"sources":[{"srcSet":"/static/5b6908692dce06098a861d6956888d8e/3f003/benchmark-wide.webp 225w,\n/static/5b6908692dce06098a861d6956888d8e/ba134/benchmark-wide.webp 450w,\n/static/5b6908692dce06098a861d6956888d8e/e7f7d/benchmark-wide.webp 900w,\n/static/5b6908692dce06098a861d6956888d8e/fc420/benchmark-wide.webp 1800w","type":"image/webp","sizes":"(min-width: 900px) 900px, 100vw"}]},"width":900,"height":450}}},"hero_image_alt":"benchmark image"},"id":"e1c867e6-8fce-50ef-b29f-84b06d83238c","slug":"development/go-benchmark/"},{"frontmatter":{"title":"[Go] 테이블 드리븐 테스트 (Table Driven Tests)","description":"Go 언어에서 자주 사용하는 테스트 작성 방식인 테이블 드리븐(Table Driven)에 대해 간략히 정리하겠습니다. 어떤 상황에서 유용하고, 어떤 상황에서 한계를 지닐 수 있는지에 대해 예시와 함께 설명하고자 합니다.","date":"August 5, 2023","category":"development","tags":["go","test","table-driven"],"hero_image":{"childImageSharp":{"gatsbyImageData":{"layout":"constrained","backgroundColor":"#f8f8f8","images":{"fallback":{"src":"/static/0169c59872ea582a3ab660a4cb0b7899/12a3e/table-driven-wide.png","srcSet":"/static/0169c59872ea582a3ab660a4cb0b7899/9d9e0/table-driven-wide.png 225w,\n/static/0169c59872ea582a3ab660a4cb0b7899/cc174/table-driven-wide.png 450w,\n/static/0169c59872ea582a3ab660a4cb0b7899/12a3e/table-driven-wide.png 900w,\n/static/0169c59872ea582a3ab660a4cb0b7899/4dd11/table-driven-wide.png 1800w","sizes":"(min-width: 900px) 900px, 100vw"},"sources":[{"srcSet":"/static/0169c59872ea582a3ab660a4cb0b7899/3f003/table-driven-wide.webp 225w,\n/static/0169c59872ea582a3ab660a4cb0b7899/ba134/table-driven-wide.webp 450w,\n/static/0169c59872ea582a3ab660a4cb0b7899/e7f7d/table-driven-wide.webp 900w,\n/static/0169c59872ea582a3ab660a4cb0b7899/fc420/table-driven-wide.webp 1800w","type":"image/webp","sizes":"(min-width: 900px) 900px, 100vw"}]},"width":900,"height":450}}},"hero_image_alt":"table driven image"},"id":"9138295d-2941-5349-9bd0-647825863305","slug":"development/go-table-driven-tests/"},{"frontmatter":{"title":"넥스터즈 22기 합격 및 활동 후기","description":"직장인 개발 동아리 넥스터즈 22기에 백엔드 개발자로 합격하고 활동하였습니다. 선발 과정부터 한 기수 동안의 활동에 대해 전반적으로 기록하고자 합니다.","date":"March 12, 2023","category":"essay","tags":["retrospective"],"hero_image":{"childImageSharp":{"gatsbyImageData":{"layout":"constrained","backgroundColor":"#080808","images":{"fallback":{"src":"/static/682509d251e90ccd7140c55088959d66/12a3e/nexters-wide.png","srcSet":"/static/682509d251e90ccd7140c55088959d66/9d9e0/nexters-wide.png 225w,\n/static/682509d251e90ccd7140c55088959d66/cc174/nexters-wide.png 450w,\n/static/682509d251e90ccd7140c55088959d66/12a3e/nexters-wide.png 900w","sizes":"(min-width: 900px) 900px, 100vw"},"sources":[{"srcSet":"/static/682509d251e90ccd7140c55088959d66/3f003/nexters-wide.webp 225w,\n/static/682509d251e90ccd7140c55088959d66/ba134/nexters-wide.webp 450w,\n/static/682509d251e90ccd7140c55088959d66/e7f7d/nexters-wide.webp 900w","type":"image/webp","sizes":"(min-width: 900px) 900px, 100vw"}]},"width":900,"height":450}}},"hero_image_alt":"nexters image"},"id":"99410a65-b704-556b-9d34-fed8b7cedef5","slug":"essay/nexters-22-retrospective/"},{"frontmatter":{"title":"테스트 코드로 레이어드 아키텍처 강제하기","description":"ArchUnit이라는 라이브러리를 통해 테스트 코드로 레이어드 아키텍처 스타일을 강제하는 수단에 대해 알아봅시다. 이를 통해 컴플라이언스와 아키텍처 피트니스 함수라는 개념에 대해 이해해봅시다.","date":"March 4, 2023","category":"development","tags":["archunit","fitness-function","layered-architecture"],"hero_image":{"childImageSharp":{"gatsbyImageData":{"layout":"constrained","backgroundColor":"#f8f8f8","images":{"fallback":{"src":"/static/f0a0cfda9ec4bf27a06d9e229c94f988/12a3e/archunit-wide.png","srcSet":"/static/f0a0cfda9ec4bf27a06d9e229c94f988/9d9e0/archunit-wide.png 225w,\n/static/f0a0cfda9ec4bf27a06d9e229c94f988/cc174/archunit-wide.png 450w,\n/static/f0a0cfda9ec4bf27a06d9e229c94f988/12a3e/archunit-wide.png 900w","sizes":"(min-width: 900px) 900px, 100vw"},"sources":[{"srcSet":"/static/f0a0cfda9ec4bf27a06d9e229c94f988/3f003/archunit-wide.webp 225w,\n/static/f0a0cfda9ec4bf27a06d9e229c94f988/ba134/archunit-wide.webp 450w,\n/static/f0a0cfda9ec4bf27a06d9e229c94f988/e7f7d/archunit-wide.webp 900w","type":"image/webp","sizes":"(min-width: 900px) 900px, 100vw"}]},"width":900,"height":450}}},"hero_image_alt":"ArchUnit image"},"id":"d1be27d6-be78-5835-8f7f-a8170a938463","slug":"development/fitness-function-for-layered-architecture/"},{"frontmatter":{"title":"쇼트서킷의 정의와 예시","description":"쇼트서킷에 대해 검색해보면 논리연산자의 동작방식이라고 설명하는 글을 종종 찾아볼 수 있습니다. 그러나 쇼트서킷은 논리연산자에 한정된 개념이라고 보기 어렵습니다. 몇 가지 간단한 예시를 통해 쇼트서킷이라는 개념에 대해 가볍게 알아봅시다.","date":"January 29, 2023","category":"computer-science","tags":["short-circuit"],"hero_image":{"childImageSharp":{"gatsbyImageData":{"layout":"constrained","backgroundColor":"#f8f8f8","images":{"fallback":{"src":"/static/cfda061f03de401e9d82145253a135bd/12a3e/short-circuit-wide.png","srcSet":"/static/cfda061f03de401e9d82145253a135bd/9d9e0/short-circuit-wide.png 225w,\n/static/cfda061f03de401e9d82145253a135bd/cc174/short-circuit-wide.png 450w,\n/static/cfda061f03de401e9d82145253a135bd/12a3e/short-circuit-wide.png 900w","sizes":"(min-width: 900px) 900px, 100vw"},"sources":[{"srcSet":"/static/cfda061f03de401e9d82145253a135bd/3f003/short-circuit-wide.webp 225w,\n/static/cfda061f03de401e9d82145253a135bd/ba134/short-circuit-wide.webp 450w,\n/static/cfda061f03de401e9d82145253a135bd/e7f7d/short-circuit-wide.webp 900w","type":"image/webp","sizes":"(min-width: 900px) 900px, 100vw"}]},"width":900,"height":450}}},"hero_image_alt":"short circuit image"},"id":"6d9b0241-f24b-5be3-b3b0-a3f5e5ff5f26","slug":"computer-science/short-circuit/"},{"frontmatter":{"title":"[리뷰] 밑바닥부터 만드는 인터프리터 in Go 독후감","description":"지인으로부터 추천받은 밑바닥부터 만드는 인터프리터 in Go라는 서적을 완독하였습니다. 책에 대한 전반적인 후기를 남기고자 합니다.","date":"January 15, 2023","category":"essay","tags":["book-review","go","interpreter","project"],"hero_image":{"childImageSharp":{"gatsbyImageData":{"layout":"constrained","backgroundColor":"#f8f8f8","images":{"fallback":{"src":"/static/fbee617c6e82b0c1e6a4123462cf5738/12a3e/interpreter-cover-wide.png","srcSet":"/static/fbee617c6e82b0c1e6a4123462cf5738/9d9e0/interpreter-cover-wide.png 225w,\n/static/fbee617c6e82b0c1e6a4123462cf5738/cc174/interpreter-cover-wide.png 450w,\n/static/fbee617c6e82b0c1e6a4123462cf5738/12a3e/interpreter-cover-wide.png 900w","sizes":"(min-width: 900px) 900px, 100vw"},"sources":[{"srcSet":"/static/fbee617c6e82b0c1e6a4123462cf5738/3f003/interpreter-cover-wide.webp 225w,\n/static/fbee617c6e82b0c1e6a4123462cf5738/ba134/interpreter-cover-wide.webp 450w,\n/static/fbee617c6e82b0c1e6a4123462cf5738/e7f7d/interpreter-cover-wide.webp 900w","type":"image/webp","sizes":"(min-width: 900px) 900px, 100vw"}]},"width":900,"height":450}}},"hero_image_alt":"interpreter cover image"},"id":"0747c2e0-f4c2-58b2-b570-43a80592bdc6","slug":"essay/interpreter-in-go-book-review/"},{"frontmatter":{"title":"[네트워크] 교환 시스템: 전용 회선과 교환 회선, 회선 교환과 패킷 교환","description":"교환(switching)이란 호스트들 사이에서 데이터가 전송되어야 하는 경로를 선택하는 과정을 의미합니다. 전용 회선, 교환 회선, 회선 교환, 패킷 교환, 데이터그램, 가상 회선, 메시지 교환, 셀 릴레이, 프레임 릴레이 등에 대해 알아봅시다.","date":"December 12, 2022","category":"computer-science","tags":["network","leased-line","switched-line","circuit-switching","packet-switching","virtual-circuit","datagram","frame-relay","cell-relay"],"hero_image":{"childImageSharp":{"gatsbyImageData":{"layout":"constrained","backgroundColor":"#f8f8f8","images":{"fallback":{"src":"/static/4c3c681995a992f40e832ae08f2ee5df/12a3e/switching-systems-wide.png","srcSet":"/static/4c3c681995a992f40e832ae08f2ee5df/9d9e0/switching-systems-wide.png 225w,\n/static/4c3c681995a992f40e832ae08f2ee5df/cc174/switching-systems-wide.png 450w,\n/static/4c3c681995a992f40e832ae08f2ee5df/12a3e/switching-systems-wide.png 900w,\n/static/4c3c681995a992f40e832ae08f2ee5df/4dd11/switching-systems-wide.png 1800w","sizes":"(min-width: 900px) 900px, 100vw"},"sources":[{"srcSet":"/static/4c3c681995a992f40e832ae08f2ee5df/3f003/switching-systems-wide.webp 225w,\n/static/4c3c681995a992f40e832ae08f2ee5df/ba134/switching-systems-wide.webp 450w,\n/static/4c3c681995a992f40e832ae08f2ee5df/e7f7d/switching-systems-wide.webp 900w,\n/static/4c3c681995a992f40e832ae08f2ee5df/fc420/switching-systems-wide.webp 1800w","type":"image/webp","sizes":"(min-width: 900px) 900px, 100vw"}]},"width":900,"height":450}}},"hero_image_alt":"switching systems image"},"id":"b5b0ed10-0b2c-505e-9907-56be0925348f","slug":"computer-science/network-switching-systems/"}],"pageInfo":{"currentPage":5,"hasNextPage":true,"hasPreviousPage":true,"pageCount":8,"totalCount":80}}},"pageContext":{"skip":40}},
    "staticQueryHashes": ["1903006949","2193720160"]}