{
    "componentChunkName": "component---src-templates-tag-js",
    "path": "/tag/go/page/2",
    "result": {"data":{"allMdx":{"nodes":[{"frontmatter":{"title":"[리뷰] 밑바닥부터 만드는 인터프리터 in Go 독후감","description":"지인으로부터 추천받은 밑바닥부터 만드는 인터프리터 in Go라는 서적을 완독하였습니다. 책에 대한 전반적인 후기를 남기고자 합니다.","date":"January 15, 2023","category":"essay","tags":["book-review","go","interpreter","project"],"hero_image":{"childImageSharp":{"gatsbyImageData":{"layout":"constrained","backgroundColor":"#f8f8f8","images":{"fallback":{"src":"/static/fbee617c6e82b0c1e6a4123462cf5738/12a3e/interpreter-cover-wide.png","srcSet":"/static/fbee617c6e82b0c1e6a4123462cf5738/9d9e0/interpreter-cover-wide.png 225w,\n/static/fbee617c6e82b0c1e6a4123462cf5738/cc174/interpreter-cover-wide.png 450w,\n/static/fbee617c6e82b0c1e6a4123462cf5738/12a3e/interpreter-cover-wide.png 900w","sizes":"(min-width: 900px) 900px, 100vw"},"sources":[{"srcSet":"/static/fbee617c6e82b0c1e6a4123462cf5738/3f003/interpreter-cover-wide.webp 225w,\n/static/fbee617c6e82b0c1e6a4123462cf5738/ba134/interpreter-cover-wide.webp 450w,\n/static/fbee617c6e82b0c1e6a4123462cf5738/e7f7d/interpreter-cover-wide.webp 900w","type":"image/webp","sizes":"(min-width: 900px) 900px, 100vw"}]},"width":900,"height":450}}},"hero_image_alt":"interpreter cover image"},"id":"0747c2e0-f4c2-58b2-b570-43a80592bdc6","slug":"essay/interpreter-in-go-book-review/"}],"pageInfo":{"currentPage":2,"hasNextPage":false,"hasPreviousPage":true,"pageCount":2,"totalCount":11}}},"pageContext":{"slug":"go","skip":10}},
    "staticQueryHashes": ["1903006949","2193720160"]}