{
    "componentChunkName": "component---src-templates-home-js",
    "path": "/",
    "result": {"data":{"allMdx":{"nodes":[{"frontmatter":{"title":"[k8s] 컨테이너 프로브를 통한 헬스체킹","description":"프로브란 컨테이너에 대해 주기적으로 실행되는 헬스체킹 작업입니다. 공식문서를 토대로 livenessProbe, readinessProbe, startupProbe에 대해 가볍게 정리합니다.","date":"July 9, 2024","category":"docs","tags":["k8s","container","probe","liveness-probe","readiness-probe","startup-probe","infrastructure","devops"],"hero_image":{"childImageSharp":{"gatsbyImageData":{"layout":"constrained","backgroundColor":"#f8f8f8","images":{"fallback":{"src":"/static/42285e5e12f6d0cdaf3003540d95db71/12a3e/thumbnail.png","srcSet":"/static/42285e5e12f6d0cdaf3003540d95db71/9d9e0/thumbnail.png 225w,\n/static/42285e5e12f6d0cdaf3003540d95db71/cc174/thumbnail.png 450w,\n/static/42285e5e12f6d0cdaf3003540d95db71/12a3e/thumbnail.png 900w,\n/static/42285e5e12f6d0cdaf3003540d95db71/4dd11/thumbnail.png 1800w","sizes":"(min-width: 900px) 900px, 100vw"},"sources":[{"srcSet":"/static/42285e5e12f6d0cdaf3003540d95db71/3f003/thumbnail.webp 225w,\n/static/42285e5e12f6d0cdaf3003540d95db71/ba134/thumbnail.webp 450w,\n/static/42285e5e12f6d0cdaf3003540d95db71/e7f7d/thumbnail.webp 900w,\n/static/42285e5e12f6d0cdaf3003540d95db71/fc420/thumbnail.webp 1800w","type":"image/webp","sizes":"(min-width: 900px) 900px, 100vw"}]},"width":900,"height":450}}},"hero_image_alt":"thumbnail image"},"id":"8ff23abd-cdee-5893-94fb-6fb4c8a0f962","slug":"posts/80/"},{"frontmatter":{"title":"[k8s] 파드 생명주기, 노드 스케줄링, 컨테이너 재시작","description":"쿠버네티스 공식문서 중 파드 생명주기 관련 내용을 가볍게 정리합니다. 노드 스케줄링, 파드의 단계, 컨테이너 상태 및 재시작 과정 등에 대해 다룹니다.","date":"July 6, 2024","category":"docs","tags":["k8s","node","pod","container","kubectl-name","crash-loop-backoff-keyword","restart-policy-field","infrastructure","devops"],"hero_image":{"childImageSharp":{"gatsbyImageData":{"layout":"constrained","backgroundColor":"#f8f8f8","images":{"fallback":{"src":"/static/d23fab6a4add1ddeb0c0207dffc58d9b/12a3e/thumbnail.png","srcSet":"/static/d23fab6a4add1ddeb0c0207dffc58d9b/9d9e0/thumbnail.png 225w,\n/static/d23fab6a4add1ddeb0c0207dffc58d9b/cc174/thumbnail.png 450w,\n/static/d23fab6a4add1ddeb0c0207dffc58d9b/12a3e/thumbnail.png 900w,\n/static/d23fab6a4add1ddeb0c0207dffc58d9b/4dd11/thumbnail.png 1800w","sizes":"(min-width: 900px) 900px, 100vw"},"sources":[{"srcSet":"/static/d23fab6a4add1ddeb0c0207dffc58d9b/3f003/thumbnail.webp 225w,\n/static/d23fab6a4add1ddeb0c0207dffc58d9b/ba134/thumbnail.webp 450w,\n/static/d23fab6a4add1ddeb0c0207dffc58d9b/e7f7d/thumbnail.webp 900w,\n/static/d23fab6a4add1ddeb0c0207dffc58d9b/fc420/thumbnail.webp 1800w","type":"image/webp","sizes":"(min-width: 900px) 900px, 100vw"}]},"width":900,"height":450}}},"hero_image_alt":"thumbnail image"},"id":"9c172e0b-25db-53e6-a23e-a725b27684aa","slug":"posts/79/"},{"frontmatter":{"title":"[k8s] ArgoCD과 Argo Rollouts 릴리즈별 k8s 버전 호환성 검토","description":"ArgoCD과 Argo Rollouts 릴리즈들은 각각 특정 쿠버네티스 버전들에 대해서만 테스트되었습니다. 이를 확인하는 방법과 마이너 버전들 간의 Breaking Changes를 확인하는 방법이 대해 정리합니다.","date":"July 5, 2024","category":"development","tags":["argocd","argo-rollouts","k8s","infrastructure","devops"],"hero_image":{"childImageSharp":{"gatsbyImageData":{"layout":"constrained","backgroundColor":"#f8f8f8","images":{"fallback":{"src":"/static/72d49a56ac52fc0d51e2b561789c410e/12a3e/thumbnail.png","srcSet":"/static/72d49a56ac52fc0d51e2b561789c410e/9d9e0/thumbnail.png 225w,\n/static/72d49a56ac52fc0d51e2b561789c410e/cc174/thumbnail.png 450w,\n/static/72d49a56ac52fc0d51e2b561789c410e/12a3e/thumbnail.png 900w,\n/static/72d49a56ac52fc0d51e2b561789c410e/4dd11/thumbnail.png 1800w","sizes":"(min-width: 900px) 900px, 100vw"},"sources":[{"srcSet":"/static/72d49a56ac52fc0d51e2b561789c410e/3f003/thumbnail.webp 225w,\n/static/72d49a56ac52fc0d51e2b561789c410e/ba134/thumbnail.webp 450w,\n/static/72d49a56ac52fc0d51e2b561789c410e/e7f7d/thumbnail.webp 900w,\n/static/72d49a56ac52fc0d51e2b561789c410e/fc420/thumbnail.webp 1800w","type":"image/webp","sizes":"(min-width: 900px) 900px, 100vw"}]},"width":900,"height":450}}},"hero_image_alt":"thumbnail image"},"id":"2a850395-9177-5c22-b81a-4e0a43060197","slug":"posts/78/"},{"frontmatter":{"title":"[k8s] 쿠버네티스와 도커, 그리고 dockershim 제거","description":"AWS EKS에서 곧 v1.23에 대한 지원이 종료됩니다. v1.24로 업그레이드하기 전에 숙지하고 있어야 하는 dockershim 컴포넌트 제거와 컨테이너 런타임에 대하여 가볍게 정리하겠습니다.","date":"June 30, 2024","category":"docs","tags":["k8s","docker","dockershim","container","container-runtime","infrastructure","devops"],"hero_image":{"childImageSharp":{"gatsbyImageData":{"layout":"constrained","backgroundColor":"#f8f8f8","images":{"fallback":{"src":"/static/05e28b051ead968072a8006d2b7f1f3e/12a3e/thumbnail.png","srcSet":"/static/05e28b051ead968072a8006d2b7f1f3e/9d9e0/thumbnail.png 225w,\n/static/05e28b051ead968072a8006d2b7f1f3e/cc174/thumbnail.png 450w,\n/static/05e28b051ead968072a8006d2b7f1f3e/12a3e/thumbnail.png 900w,\n/static/05e28b051ead968072a8006d2b7f1f3e/4dd11/thumbnail.png 1800w","sizes":"(min-width: 900px) 900px, 100vw"},"sources":[{"srcSet":"/static/05e28b051ead968072a8006d2b7f1f3e/3f003/thumbnail.webp 225w,\n/static/05e28b051ead968072a8006d2b7f1f3e/ba134/thumbnail.webp 450w,\n/static/05e28b051ead968072a8006d2b7f1f3e/e7f7d/thumbnail.webp 900w,\n/static/05e28b051ead968072a8006d2b7f1f3e/fc420/thumbnail.webp 1800w","type":"image/webp","sizes":"(min-width: 900px) 900px, 100vw"}]},"width":900,"height":450}}},"hero_image_alt":"thumbnail image"},"id":"d608defc-df76-566b-acb5-42dcb0886582","slug":"posts/77/"},{"frontmatter":{"title":"[AWS] EKS 버전 업그레이드는 미리미리 하자","description":"Amazon EKS로 쿠버네티스 클러스터를 운영할 경우 꾸준히 버전 업그레이드가 필요합니다. 제때 업그레이드를 하지 않을 경우 추가적인 서버 비용이 발생하고, 시간이 지나면 자동으로 업그레이드되면서 서버 장애가 발생할 수 있습니다.","date":"June 23, 2024","category":"docs","tags":["aws","aws-eks","k8s","devops","infrastructure"],"hero_image":{"childImageSharp":{"gatsbyImageData":{"layout":"constrained","backgroundColor":"#f8f8f8","images":{"fallback":{"src":"/static/e2de4f28311f811f882546c32f0bc5a4/12a3e/thumbnail.png","srcSet":"/static/e2de4f28311f811f882546c32f0bc5a4/9d9e0/thumbnail.png 225w,\n/static/e2de4f28311f811f882546c32f0bc5a4/cc174/thumbnail.png 450w,\n/static/e2de4f28311f811f882546c32f0bc5a4/12a3e/thumbnail.png 900w,\n/static/e2de4f28311f811f882546c32f0bc5a4/4dd11/thumbnail.png 1800w","sizes":"(min-width: 900px) 900px, 100vw"},"sources":[{"srcSet":"/static/e2de4f28311f811f882546c32f0bc5a4/3f003/thumbnail.webp 225w,\n/static/e2de4f28311f811f882546c32f0bc5a4/ba134/thumbnail.webp 450w,\n/static/e2de4f28311f811f882546c32f0bc5a4/e7f7d/thumbnail.webp 900w,\n/static/e2de4f28311f811f882546c32f0bc5a4/fc420/thumbnail.webp 1800w","type":"image/webp","sizes":"(min-width: 900px) 900px, 100vw"}]},"width":900,"height":450}}},"hero_image_alt":"thumbnail image"},"id":"5de041b3-69b0-5e33-98f7-f31a9a413583","slug":"posts/76/"},{"frontmatter":{"title":"[C++] cin, cout과 입출력 연산자 오버로딩","description":"iostream 라이브러리에서 제공하는 std::cin과 std::cout에 대해 알아보고, 입출력 연산자 >>와 <<를 오버로딩하는 방법을 정리하겠습니다.","date":"June 22, 2024","category":"development","tags":["cpp","operator-overloading","input-operator-keyword","output-operator-keyword","syntax"],"hero_image":{"childImageSharp":{"gatsbyImageData":{"layout":"constrained","backgroundColor":"#f8f8f8","images":{"fallback":{"src":"/static/d8738b3ba90599a6ed23c57c6a95b6fb/12a3e/thumbnail.png","srcSet":"/static/d8738b3ba90599a6ed23c57c6a95b6fb/9d9e0/thumbnail.png 225w,\n/static/d8738b3ba90599a6ed23c57c6a95b6fb/cc174/thumbnail.png 450w,\n/static/d8738b3ba90599a6ed23c57c6a95b6fb/12a3e/thumbnail.png 900w,\n/static/d8738b3ba90599a6ed23c57c6a95b6fb/4dd11/thumbnail.png 1800w","sizes":"(min-width: 900px) 900px, 100vw"},"sources":[{"srcSet":"/static/d8738b3ba90599a6ed23c57c6a95b6fb/3f003/thumbnail.webp 225w,\n/static/d8738b3ba90599a6ed23c57c6a95b6fb/ba134/thumbnail.webp 450w,\n/static/d8738b3ba90599a6ed23c57c6a95b6fb/e7f7d/thumbnail.webp 900w,\n/static/d8738b3ba90599a6ed23c57c6a95b6fb/fc420/thumbnail.webp 1800w","type":"image/webp","sizes":"(min-width: 900px) 900px, 100vw"}]},"width":900,"height":450}}},"hero_image_alt":"thumbnail image"},"id":"5358079e-f6e1-5d7e-a116-0c99e41dd571","slug":"posts/75/"},{"frontmatter":{"title":"[C++] 사칙연산 연산자 오버로딩","description":"C++에서 지원하는 연산자 오버로딩에 대해 설명하고, +, -, *, /, % 연산자들을 오버로딩하는 방법 및 세부 문법에 대해 정리하겠습니다.","date":"June 22, 2024","category":"development","tags":["cpp","operator-overloading","arithmetic-operation","syntax"],"hero_image":{"childImageSharp":{"gatsbyImageData":{"layout":"constrained","backgroundColor":"#f8f8f8","images":{"fallback":{"src":"/static/2b066785a4b153906fd2a3a8e7ad0dab/12a3e/thumbnail.png","srcSet":"/static/2b066785a4b153906fd2a3a8e7ad0dab/9d9e0/thumbnail.png 225w,\n/static/2b066785a4b153906fd2a3a8e7ad0dab/cc174/thumbnail.png 450w,\n/static/2b066785a4b153906fd2a3a8e7ad0dab/12a3e/thumbnail.png 900w,\n/static/2b066785a4b153906fd2a3a8e7ad0dab/4dd11/thumbnail.png 1800w","sizes":"(min-width: 900px) 900px, 100vw"},"sources":[{"srcSet":"/static/2b066785a4b153906fd2a3a8e7ad0dab/3f003/thumbnail.webp 225w,\n/static/2b066785a4b153906fd2a3a8e7ad0dab/ba134/thumbnail.webp 450w,\n/static/2b066785a4b153906fd2a3a8e7ad0dab/e7f7d/thumbnail.webp 900w,\n/static/2b066785a4b153906fd2a3a8e7ad0dab/fc420/thumbnail.webp 1800w","type":"image/webp","sizes":"(min-width: 900px) 900px, 100vw"}]},"width":900,"height":450}}},"hero_image_alt":"thumbnail image"},"id":"d13a2815-fc29-57e4-bdbf-d0e23b3ea64f","slug":"posts/74/"},{"frontmatter":{"title":"[C++] friend 키워드의 활용","description":"C++의 friend 키워드에 대해 정리하고, 주의사항에 대해 가볍게 정리하겠습니다.","date":"June 21, 2024","category":"development","tags":["cpp","friend-keword","syntax"],"hero_image":{"childImageSharp":{"gatsbyImageData":{"layout":"constrained","backgroundColor":"#f8f8f8","images":{"fallback":{"src":"/static/9957f7acfb0caa2b48e95f24e676c4e0/12a3e/thumbnail.png","srcSet":"/static/9957f7acfb0caa2b48e95f24e676c4e0/9d9e0/thumbnail.png 225w,\n/static/9957f7acfb0caa2b48e95f24e676c4e0/cc174/thumbnail.png 450w,\n/static/9957f7acfb0caa2b48e95f24e676c4e0/12a3e/thumbnail.png 900w,\n/static/9957f7acfb0caa2b48e95f24e676c4e0/4dd11/thumbnail.png 1800w","sizes":"(min-width: 900px) 900px, 100vw"},"sources":[{"srcSet":"/static/9957f7acfb0caa2b48e95f24e676c4e0/3f003/thumbnail.webp 225w,\n/static/9957f7acfb0caa2b48e95f24e676c4e0/ba134/thumbnail.webp 450w,\n/static/9957f7acfb0caa2b48e95f24e676c4e0/e7f7d/thumbnail.webp 900w,\n/static/9957f7acfb0caa2b48e95f24e676c4e0/fc420/thumbnail.webp 1800w","type":"image/webp","sizes":"(min-width: 900px) 900px, 100vw"}]},"width":900,"height":450}}},"hero_image_alt":"thumbnail image"},"id":"6969dfce-c7c5-533c-b2c0-58130bc37d8c","slug":"posts/73/"},{"frontmatter":{"title":"[C++] const 키워드의 활용","description":"C언어에서의 const 키워드를 가볍게 복습하고, const 객체, const 함수, const 매개변수, const 반환형, 형 변환 연산자 const_cast, mutable 키워드 등에 대해 포괄적으로 정리하겠습니다.","date":"June 20, 2024","category":"development","tags":["cpp","const-keyword","mutable-keyword","const-cast","copy-constructor","pointer","class","syntax"],"hero_image":{"childImageSharp":{"gatsbyImageData":{"layout":"constrained","backgroundColor":"#f8f8f8","images":{"fallback":{"src":"/static/8b2e600740f199c315237a5518ecca9f/12a3e/cpp-const-keyword-wide.png","srcSet":"/static/8b2e600740f199c315237a5518ecca9f/9d9e0/cpp-const-keyword-wide.png 225w,\n/static/8b2e600740f199c315237a5518ecca9f/cc174/cpp-const-keyword-wide.png 450w,\n/static/8b2e600740f199c315237a5518ecca9f/12a3e/cpp-const-keyword-wide.png 900w,\n/static/8b2e600740f199c315237a5518ecca9f/4dd11/cpp-const-keyword-wide.png 1800w","sizes":"(min-width: 900px) 900px, 100vw"},"sources":[{"srcSet":"/static/8b2e600740f199c315237a5518ecca9f/3f003/cpp-const-keyword-wide.webp 225w,\n/static/8b2e600740f199c315237a5518ecca9f/ba134/cpp-const-keyword-wide.webp 450w,\n/static/8b2e600740f199c315237a5518ecca9f/e7f7d/cpp-const-keyword-wide.webp 900w,\n/static/8b2e600740f199c315237a5518ecca9f/fc420/cpp-const-keyword-wide.webp 1800w","type":"image/webp","sizes":"(min-width: 900px) 900px, 100vw"}]},"width":900,"height":450}}},"hero_image_alt":"cpp const keyword image"},"id":"861b3f18-4888-5239-8e9f-edfd2913a69b","slug":"development/cpp-const-keyword/"},{"frontmatter":{"title":"[리뷰] 윤성우의 열혈 C++ 프로그래밍 독후감","description":"지인으로부터 선물받은 윤성우의 열혈 C++ 프로그래밍이라는 서적을 완독하였습니다. 책에 대한 짧은 후기를 남기고자 합니다.","date":"June 19, 2024","category":"essay","tags":["book-review","cpp","syntax"],"hero_image":{"childImageSharp":{"gatsbyImageData":{"layout":"constrained","backgroundColor":"#f8f8f8","images":{"fallback":{"src":"/static/94e8dae09968ffa6ac6c0dcc0d524831/12a3e/passionate-cpp-book-review-wide.png","srcSet":"/static/94e8dae09968ffa6ac6c0dcc0d524831/9d9e0/passionate-cpp-book-review-wide.png 225w,\n/static/94e8dae09968ffa6ac6c0dcc0d524831/cc174/passionate-cpp-book-review-wide.png 450w,\n/static/94e8dae09968ffa6ac6c0dcc0d524831/12a3e/passionate-cpp-book-review-wide.png 900w,\n/static/94e8dae09968ffa6ac6c0dcc0d524831/4dd11/passionate-cpp-book-review-wide.png 1800w","sizes":"(min-width: 900px) 900px, 100vw"},"sources":[{"srcSet":"/static/94e8dae09968ffa6ac6c0dcc0d524831/3f003/passionate-cpp-book-review-wide.webp 225w,\n/static/94e8dae09968ffa6ac6c0dcc0d524831/ba134/passionate-cpp-book-review-wide.webp 450w,\n/static/94e8dae09968ffa6ac6c0dcc0d524831/e7f7d/passionate-cpp-book-review-wide.webp 900w,\n/static/94e8dae09968ffa6ac6c0dcc0d524831/fc420/passionate-cpp-book-review-wide.webp 1800w","type":"image/webp","sizes":"(min-width: 900px) 900px, 100vw"}]},"width":900,"height":450}}},"hero_image_alt":"passionate cpp book review image"},"id":"e5fe77ba-f0d1-5376-a042-2ca2ebf0cd9b","slug":"essay/passionate-cpp-book-review/"}],"pageInfo":{"currentPage":1,"hasNextPage":true,"hasPreviousPage":false,"pageCount":8,"totalCount":80}}},"pageContext":{"skip":0}},
    "staticQueryHashes": ["1903006949","2193720160"]}