{
    "componentChunkName": "component---src-templates-tag-js",
    "path": "/tag/database/page/2",
    "result": {"data":{"allMdx":{"nodes":[{"frontmatter":{"title":"[번역] 커넥션 풀 사이즈에 대하여","description":"HikariCP 공식 위키의 'About Pool Sizing' 페이지에 대한 번역입니다. 최적의 성능을 위해 데이터베이스 커넥션 풀 크기를 어떻게 설정해야 하는지에 대해 다룹니다.","date":"September 25, 2022","category":"docs","tags":["database","data-access","connection-pool","translation"],"hero_image":{"childImageSharp":{"gatsbyImageData":{"layout":"constrained","backgroundColor":"#f8f8f8","images":{"fallback":{"src":"/static/f39058da346fa14a151dc0d221255501/12a3e/connection-pool-wide.png","srcSet":"/static/f39058da346fa14a151dc0d221255501/9d9e0/connection-pool-wide.png 225w,\n/static/f39058da346fa14a151dc0d221255501/cc174/connection-pool-wide.png 450w,\n/static/f39058da346fa14a151dc0d221255501/12a3e/connection-pool-wide.png 900w","sizes":"(min-width: 900px) 900px, 100vw"},"sources":[{"srcSet":"/static/f39058da346fa14a151dc0d221255501/3f003/connection-pool-wide.webp 225w,\n/static/f39058da346fa14a151dc0d221255501/ba134/connection-pool-wide.webp 450w,\n/static/f39058da346fa14a151dc0d221255501/e7f7d/connection-pool-wide.webp 900w","type":"image/webp","sizes":"(min-width: 900px) 900px, 100vw"}]},"width":900,"height":450}}},"hero_image_alt":"connection pool image"},"id":"378afb45-df0b-5474-b190-2011c9fc35e7","slug":"docs/database-connection-pool-sizing/"},{"frontmatter":{"title":"[보안] 비밀번호 암호화: 해쉬와 솔트","description":"DB에 비밀번호를 변형시킨 값을 저장해놓으면 DB 정보가 외부에 유출되더라도 이를 쉽게 악용하기 힘들어진다. 솔트와 해쉬 함수를 활용하여 비밀번호의 해쉬 값을 생성하고 이를 DB에 저장하는 기법을 생각해볼 수 있다.","date":"April 25, 2022","category":"development","tags":["database","hash","security","authentication"],"hero_image":{"childImageSharp":{"gatsbyImageData":{"layout":"constrained","backgroundColor":"#f8f8f8","images":{"fallback":{"src":"/static/a0b1a282a327616498079b1e732fe0d1/12a3e/hashing-password-wide.png","srcSet":"/static/a0b1a282a327616498079b1e732fe0d1/9d9e0/hashing-password-wide.png 225w,\n/static/a0b1a282a327616498079b1e732fe0d1/cc174/hashing-password-wide.png 450w,\n/static/a0b1a282a327616498079b1e732fe0d1/12a3e/hashing-password-wide.png 900w","sizes":"(min-width: 900px) 900px, 100vw"},"sources":[{"srcSet":"/static/a0b1a282a327616498079b1e732fe0d1/3f003/hashing-password-wide.webp 225w,\n/static/a0b1a282a327616498079b1e732fe0d1/ba134/hashing-password-wide.webp 450w,\n/static/a0b1a282a327616498079b1e732fe0d1/e7f7d/hashing-password-wide.webp 900w","type":"image/webp","sizes":"(min-width: 900px) 900px, 100vw"}]},"width":900,"height":450}}},"hero_image_alt":"hashing password image"},"id":"6976b79c-69ee-531c-9bc9-a19004687749","slug":"development/hashing-password-with-salt/"}],"pageInfo":{"currentPage":2,"hasNextPage":false,"hasPreviousPage":true,"pageCount":2,"totalCount":12}}},"pageContext":{"slug":"database","skip":10}},
    "staticQueryHashes": ["1903006949","2193720160"]}