{
    "componentChunkName": "component---src-templates-category-js",
    "path": "/category/computer-science",
    "result": {"data":{"allMdx":{"nodes":[{"frontmatter":{"title":"[MySQL] B트리 인덱스와 Hash 인덱스","description":"인덱스는 데이터를 보다 효율적으로 검색할 수 있도록 테이블에서 관리되는 자료구조입니다. 해당 글에서는 MySQL에서 제공되는 B 트리 기반 인덱스와 Hash 인덱스의 특징과 주의사항에 대해 가볍게 정리해보고자 합니다.","date":"January 3, 2024","category":"computer-science","tags":["mysql","database","index","b-tree","hash"],"hero_image":{"childImageSharp":{"gatsbyImageData":{"layout":"constrained","backgroundColor":"#f8f8f8","images":{"fallback":{"src":"/static/e8236d054d06f5b0e2f42c5cf5b28551/12a3e/main-wide.png","srcSet":"/static/e8236d054d06f5b0e2f42c5cf5b28551/9d9e0/main-wide.png 225w,\n/static/e8236d054d06f5b0e2f42c5cf5b28551/cc174/main-wide.png 450w,\n/static/e8236d054d06f5b0e2f42c5cf5b28551/12a3e/main-wide.png 900w,\n/static/e8236d054d06f5b0e2f42c5cf5b28551/4dd11/main-wide.png 1800w","sizes":"(min-width: 900px) 900px, 100vw"},"sources":[{"srcSet":"/static/e8236d054d06f5b0e2f42c5cf5b28551/3f003/main-wide.webp 225w,\n/static/e8236d054d06f5b0e2f42c5cf5b28551/ba134/main-wide.webp 450w,\n/static/e8236d054d06f5b0e2f42c5cf5b28551/e7f7d/main-wide.webp 900w,\n/static/e8236d054d06f5b0e2f42c5cf5b28551/fc420/main-wide.webp 1800w","type":"image/webp","sizes":"(min-width: 900px) 900px, 100vw"}]},"width":900,"height":450}}},"hero_image_alt":"main image"},"id":"04921a36-824f-5f86-9638-06a66567228b","slug":"computer-science/btree-index-and-hash-index/"},{"frontmatter":{"title":"[MySQL] 왜 DB 인덱스로 B 트리를 사용하는가 (feat. 이진탐색트리)","description":"MySQL에서는 일반적으로 B 트리 기반의 인덱스가 사용됩니다. 이진탐색트리과의 비교를 통해 B 트리 자료구조를 이해하고, 왜 DB 인덱스에 적절한지에 대해 정리해보고자 합니다.","date":"January 2, 2024","category":"computer-science","tags":["mysql","data-structure","b-tree","binary-search-tree","database","index"],"hero_image":{"childImageSharp":{"gatsbyImageData":{"layout":"constrained","backgroundColor":"#f8f8f8","images":{"fallback":{"src":"/static/50c27211decbf4235b871f56ae3d1a0b/12a3e/main-wide.png","srcSet":"/static/50c27211decbf4235b871f56ae3d1a0b/9d9e0/main-wide.png 225w,\n/static/50c27211decbf4235b871f56ae3d1a0b/cc174/main-wide.png 450w,\n/static/50c27211decbf4235b871f56ae3d1a0b/12a3e/main-wide.png 900w,\n/static/50c27211decbf4235b871f56ae3d1a0b/4dd11/main-wide.png 1800w","sizes":"(min-width: 900px) 900px, 100vw"},"sources":[{"srcSet":"/static/50c27211decbf4235b871f56ae3d1a0b/3f003/main-wide.webp 225w,\n/static/50c27211decbf4235b871f56ae3d1a0b/ba134/main-wide.webp 450w,\n/static/50c27211decbf4235b871f56ae3d1a0b/e7f7d/main-wide.webp 900w,\n/static/50c27211decbf4235b871f56ae3d1a0b/fc420/main-wide.webp 1800w","type":"image/webp","sizes":"(min-width: 900px) 900px, 100vw"}]},"width":900,"height":450}}},"hero_image_alt":"main image"},"id":"6a0636a2-da60-5dfe-95dc-61213ab3ff3b","slug":"computer-science/why-use-btree-for-db-index/"},{"frontmatter":{"title":"[OS] 멀티쓰레딩 모델","description":"유저 쓰레드와 OS 쓰레드 간의 관계가 Many-to-One, One-to-One, Many-to-Many일 때 각각 어떠한 차이를 지니는지 압축적으로 정리합니다. 고루틴, 코루틴, 쓰레드풀, 자바의 가상 쓰레드 등의 아키텍처를 이해하는 데 필요한 배경지식을 다룹니다.","date":"October 15, 2023","category":"computer-science","tags":["operating-system","thread","thread-pool","multi-threading","concurrency","java","virtual-thread","go","goroutine"],"hero_image":{"childImageSharp":{"gatsbyImageData":{"layout":"constrained","backgroundColor":"#f8f8f8","images":{"fallback":{"src":"/static/9a9ee4c1b7551795a6ccd83fdf99b36f/12a3e/multi-threading-models-wide.png","srcSet":"/static/9a9ee4c1b7551795a6ccd83fdf99b36f/9d9e0/multi-threading-models-wide.png 225w,\n/static/9a9ee4c1b7551795a6ccd83fdf99b36f/cc174/multi-threading-models-wide.png 450w,\n/static/9a9ee4c1b7551795a6ccd83fdf99b36f/12a3e/multi-threading-models-wide.png 900w,\n/static/9a9ee4c1b7551795a6ccd83fdf99b36f/4dd11/multi-threading-models-wide.png 1800w","sizes":"(min-width: 900px) 900px, 100vw"},"sources":[{"srcSet":"/static/9a9ee4c1b7551795a6ccd83fdf99b36f/3f003/multi-threading-models-wide.webp 225w,\n/static/9a9ee4c1b7551795a6ccd83fdf99b36f/ba134/multi-threading-models-wide.webp 450w,\n/static/9a9ee4c1b7551795a6ccd83fdf99b36f/e7f7d/multi-threading-models-wide.webp 900w,\n/static/9a9ee4c1b7551795a6ccd83fdf99b36f/fc420/multi-threading-models-wide.webp 1800w","type":"image/webp","sizes":"(min-width: 900px) 900px, 100vw"}]},"width":900,"height":450}}},"hero_image_alt":"multi threading models image"},"id":"698eb25a-2091-5276-b13d-cb2378ba7232","slug":"computer-science/multi-threading-models/"},{"frontmatter":{"title":"[OS] 쓰레드의 종류","description":"하드웨어, OS 커널, 유저 레벨에서의 쓰레드들이 서로 어떻게 다른지 가볍게 정리합니다.","date":"October 14, 2023","category":"computer-science","tags":["operating-system","thread"],"hero_image":{"childImageSharp":{"gatsbyImageData":{"layout":"constrained","backgroundColor":"#f8f8f8","images":{"fallback":{"src":"/static/c82337dd4e60e45728ec82ca7c7a5089/12a3e/thread-types-wide.png","srcSet":"/static/c82337dd4e60e45728ec82ca7c7a5089/9d9e0/thread-types-wide.png 225w,\n/static/c82337dd4e60e45728ec82ca7c7a5089/cc174/thread-types-wide.png 450w,\n/static/c82337dd4e60e45728ec82ca7c7a5089/12a3e/thread-types-wide.png 900w,\n/static/c82337dd4e60e45728ec82ca7c7a5089/4dd11/thread-types-wide.png 1800w","sizes":"(min-width: 900px) 900px, 100vw"},"sources":[{"srcSet":"/static/c82337dd4e60e45728ec82ca7c7a5089/3f003/thread-types-wide.webp 225w,\n/static/c82337dd4e60e45728ec82ca7c7a5089/ba134/thread-types-wide.webp 450w,\n/static/c82337dd4e60e45728ec82ca7c7a5089/e7f7d/thread-types-wide.webp 900w,\n/static/c82337dd4e60e45728ec82ca7c7a5089/fc420/thread-types-wide.webp 1800w","type":"image/webp","sizes":"(min-width: 900px) 900px, 100vw"}]},"width":900,"height":450}}},"hero_image_alt":"thread types image"},"id":"b8c257fb-11d7-5599-ba19-a3bf71f4535b","slug":"computer-science/thread-types/"},{"frontmatter":{"title":"서킷 브레이커 패턴의 필요성과 구조","description":"재시도 패턴과 연쇄적 실패 문제를 토대로 서킷 브레이커 패턴의 필요성에 대해 설명하고, 서킷 브레이커의 기본 구조에 대해 간략히 정리하겠습니다.","date":"October 12, 2023","category":"computer-science","tags":["circuit-breaker","finite-state-machine","retry-pattern","cascade-failure","design-pattern"],"hero_image":{"childImageSharp":{"gatsbyImageData":{"layout":"constrained","backgroundColor":"#f8f8f8","images":{"fallback":{"src":"/static/ffb8725258230949a365619c88539c44/12a3e/circuit-breaker-pattern-wide.png","srcSet":"/static/ffb8725258230949a365619c88539c44/9d9e0/circuit-breaker-pattern-wide.png 225w,\n/static/ffb8725258230949a365619c88539c44/cc174/circuit-breaker-pattern-wide.png 450w,\n/static/ffb8725258230949a365619c88539c44/12a3e/circuit-breaker-pattern-wide.png 900w,\n/static/ffb8725258230949a365619c88539c44/4dd11/circuit-breaker-pattern-wide.png 1800w","sizes":"(min-width: 900px) 900px, 100vw"},"sources":[{"srcSet":"/static/ffb8725258230949a365619c88539c44/3f003/circuit-breaker-pattern-wide.webp 225w,\n/static/ffb8725258230949a365619c88539c44/ba134/circuit-breaker-pattern-wide.webp 450w,\n/static/ffb8725258230949a365619c88539c44/e7f7d/circuit-breaker-pattern-wide.webp 900w,\n/static/ffb8725258230949a365619c88539c44/fc420/circuit-breaker-pattern-wide.webp 1800w","type":"image/webp","sizes":"(min-width: 900px) 900px, 100vw"}]},"width":900,"height":450}}},"hero_image_alt":"circuit breaker pattern image"},"id":"5b9f3852-5d55-57f0-875f-b4dd1294d52b","slug":"computer-science/circuit-breaker-pattern/"},{"frontmatter":{"title":"[Couchbase] CAS 기반 낙관적 락킹","description":"낙관적 락킹과 비관적 락킹에 대해 정리하고, 카우치베이스에서 제공하는 CAS 기반 낙관적 락킹에 대해 실습 코드와 함께 정리해봅니다.","date":"October 10, 2023","category":"computer-science","tags":["couchbase","cas","concurrency-control","optimistic-lock","database"],"hero_image":{"childImageSharp":{"gatsbyImageData":{"layout":"constrained","backgroundColor":"#f8f8f8","images":{"fallback":{"src":"/static/7d22098201c7fadb5d72fb1391a883dd/12a3e/optimistic-locking-with-cas-wide.png","srcSet":"/static/7d22098201c7fadb5d72fb1391a883dd/9d9e0/optimistic-locking-with-cas-wide.png 225w,\n/static/7d22098201c7fadb5d72fb1391a883dd/cc174/optimistic-locking-with-cas-wide.png 450w,\n/static/7d22098201c7fadb5d72fb1391a883dd/12a3e/optimistic-locking-with-cas-wide.png 900w,\n/static/7d22098201c7fadb5d72fb1391a883dd/4dd11/optimistic-locking-with-cas-wide.png 1800w","sizes":"(min-width: 900px) 900px, 100vw"},"sources":[{"srcSet":"/static/7d22098201c7fadb5d72fb1391a883dd/3f003/optimistic-locking-with-cas-wide.webp 225w,\n/static/7d22098201c7fadb5d72fb1391a883dd/ba134/optimistic-locking-with-cas-wide.webp 450w,\n/static/7d22098201c7fadb5d72fb1391a883dd/e7f7d/optimistic-locking-with-cas-wide.webp 900w,\n/static/7d22098201c7fadb5d72fb1391a883dd/fc420/optimistic-locking-with-cas-wide.webp 1800w","type":"image/webp","sizes":"(min-width: 900px) 900px, 100vw"}]},"width":900,"height":450}}},"hero_image_alt":"optimistic locking with cas image"},"id":"a135440e-2f93-5edb-8f52-89f95537ee6c","slug":"computer-science/optimistic-locking-with-cas/"},{"frontmatter":{"title":"쇼트서킷의 정의와 예시","description":"쇼트서킷에 대해 검색해보면 논리연산자의 동작방식이라고 설명하는 글을 종종 찾아볼 수 있습니다. 그러나 쇼트서킷은 논리연산자에 한정된 개념이라고 보기 어렵습니다. 몇 가지 간단한 예시를 통해 쇼트서킷이라는 개념에 대해 가볍게 알아봅시다.","date":"January 29, 2023","category":"computer-science","tags":["short-circuit"],"hero_image":{"childImageSharp":{"gatsbyImageData":{"layout":"constrained","backgroundColor":"#f8f8f8","images":{"fallback":{"src":"/static/cfda061f03de401e9d82145253a135bd/12a3e/short-circuit-wide.png","srcSet":"/static/cfda061f03de401e9d82145253a135bd/9d9e0/short-circuit-wide.png 225w,\n/static/cfda061f03de401e9d82145253a135bd/cc174/short-circuit-wide.png 450w,\n/static/cfda061f03de401e9d82145253a135bd/12a3e/short-circuit-wide.png 900w","sizes":"(min-width: 900px) 900px, 100vw"},"sources":[{"srcSet":"/static/cfda061f03de401e9d82145253a135bd/3f003/short-circuit-wide.webp 225w,\n/static/cfda061f03de401e9d82145253a135bd/ba134/short-circuit-wide.webp 450w,\n/static/cfda061f03de401e9d82145253a135bd/e7f7d/short-circuit-wide.webp 900w","type":"image/webp","sizes":"(min-width: 900px) 900px, 100vw"}]},"width":900,"height":450}}},"hero_image_alt":"short circuit image"},"id":"6d9b0241-f24b-5be3-b3b0-a3f5e5ff5f26","slug":"computer-science/short-circuit/"},{"frontmatter":{"title":"[네트워크] 교환 시스템: 전용 회선과 교환 회선, 회선 교환과 패킷 교환","description":"교환(switching)이란 호스트들 사이에서 데이터가 전송되어야 하는 경로를 선택하는 과정을 의미합니다. 전용 회선, 교환 회선, 회선 교환, 패킷 교환, 데이터그램, 가상 회선, 메시지 교환, 셀 릴레이, 프레임 릴레이 등에 대해 알아봅시다.","date":"December 12, 2022","category":"computer-science","tags":["network","leased-line","switched-line","circuit-switching","packet-switching","virtual-circuit","datagram","frame-relay","cell-relay"],"hero_image":{"childImageSharp":{"gatsbyImageData":{"layout":"constrained","backgroundColor":"#f8f8f8","images":{"fallback":{"src":"/static/4c3c681995a992f40e832ae08f2ee5df/12a3e/switching-systems-wide.png","srcSet":"/static/4c3c681995a992f40e832ae08f2ee5df/9d9e0/switching-systems-wide.png 225w,\n/static/4c3c681995a992f40e832ae08f2ee5df/cc174/switching-systems-wide.png 450w,\n/static/4c3c681995a992f40e832ae08f2ee5df/12a3e/switching-systems-wide.png 900w,\n/static/4c3c681995a992f40e832ae08f2ee5df/4dd11/switching-systems-wide.png 1800w","sizes":"(min-width: 900px) 900px, 100vw"},"sources":[{"srcSet":"/static/4c3c681995a992f40e832ae08f2ee5df/3f003/switching-systems-wide.webp 225w,\n/static/4c3c681995a992f40e832ae08f2ee5df/ba134/switching-systems-wide.webp 450w,\n/static/4c3c681995a992f40e832ae08f2ee5df/e7f7d/switching-systems-wide.webp 900w,\n/static/4c3c681995a992f40e832ae08f2ee5df/fc420/switching-systems-wide.webp 1800w","type":"image/webp","sizes":"(min-width: 900px) 900px, 100vw"}]},"width":900,"height":450}}},"hero_image_alt":"switching systems image"},"id":"b5b0ed10-0b2c-505e-9907-56be0925348f","slug":"computer-science/network-switching-systems/"},{"frontmatter":{"title":"[알고리즘] 정렬의 분류, 삽입 정렬, 선택 정렬, 버블 정렬","description":"정렬 방식의 다양한 분류 기준과 구현은 간단하지만 비효율적인 삽입 정렬, 선택 정렬, 버블 정렬에 대해 알아봅시다.","date":"December 9, 2022","category":"computer-science","tags":["algorithm","sort","insertion-sort","selection-sort","bubble-sort"],"hero_image":{"childImageSharp":{"gatsbyImageData":{"layout":"constrained","backgroundColor":"#f8f8f8","images":{"fallback":{"src":"/static/e2c6106446fb46e3a15a1a869a39afb0/12a3e/sorting-basics-wide.png","srcSet":"/static/e2c6106446fb46e3a15a1a869a39afb0/9d9e0/sorting-basics-wide.png 225w,\n/static/e2c6106446fb46e3a15a1a869a39afb0/cc174/sorting-basics-wide.png 450w,\n/static/e2c6106446fb46e3a15a1a869a39afb0/12a3e/sorting-basics-wide.png 900w,\n/static/e2c6106446fb46e3a15a1a869a39afb0/4dd11/sorting-basics-wide.png 1800w","sizes":"(min-width: 900px) 900px, 100vw"},"sources":[{"srcSet":"/static/e2c6106446fb46e3a15a1a869a39afb0/3f003/sorting-basics-wide.webp 225w,\n/static/e2c6106446fb46e3a15a1a869a39afb0/ba134/sorting-basics-wide.webp 450w,\n/static/e2c6106446fb46e3a15a1a869a39afb0/e7f7d/sorting-basics-wide.webp 900w,\n/static/e2c6106446fb46e3a15a1a869a39afb0/fc420/sorting-basics-wide.webp 1800w","type":"image/webp","sizes":"(min-width: 900px) 900px, 100vw"}]},"width":900,"height":450}}},"hero_image_alt":"sorting basics image"},"id":"d7f5dfd9-bdcb-5c96-ae18-6149b1777ab3","slug":"computer-science/sorting-basics/"},{"frontmatter":{"title":"[이산수학] 직접 증명법, 대우 증명법, 귀류법","description":"이산수학에서 배우는 직접 증명법, 대우 증명법, 귀류법 등의 용어를 가볍게 정리합니다. 나아가 귀류법이 다른 증명방법들에 비해 지니는 한계에 대해 설명합니다.","date":"December 3, 2022","category":"computer-science","tags":["discrete-mathematics","proof","direct-proof","contraposition","proof-by-contraposition","proof-by-contradiction"],"hero_image":{"childImageSharp":{"gatsbyImageData":{"layout":"constrained","backgroundColor":"#f8f8f8","images":{"fallback":{"src":"/static/7afbbac07404ccef2dde06b82c20ce39/12a3e/math-proof-basics-wide.png","srcSet":"/static/7afbbac07404ccef2dde06b82c20ce39/9d9e0/math-proof-basics-wide.png 225w,\n/static/7afbbac07404ccef2dde06b82c20ce39/cc174/math-proof-basics-wide.png 450w,\n/static/7afbbac07404ccef2dde06b82c20ce39/12a3e/math-proof-basics-wide.png 900w,\n/static/7afbbac07404ccef2dde06b82c20ce39/4dd11/math-proof-basics-wide.png 1800w","sizes":"(min-width: 900px) 900px, 100vw"},"sources":[{"srcSet":"/static/7afbbac07404ccef2dde06b82c20ce39/3f003/math-proof-basics-wide.webp 225w,\n/static/7afbbac07404ccef2dde06b82c20ce39/ba134/math-proof-basics-wide.webp 450w,\n/static/7afbbac07404ccef2dde06b82c20ce39/e7f7d/math-proof-basics-wide.webp 900w,\n/static/7afbbac07404ccef2dde06b82c20ce39/fc420/math-proof-basics-wide.webp 1800w","type":"image/webp","sizes":"(min-width: 900px) 900px, 100vw"}]},"width":900,"height":450}}},"hero_image_alt":"math proof basics image"},"id":"5ac6a64b-9068-5b17-bbd0-4947a62949b2","slug":"computer-science/math-proof-basics/"}],"pageInfo":{"currentPage":1,"hasNextPage":true,"hasPreviousPage":false,"pageCount":2,"totalCount":18}}},"pageContext":{"slug":"computer-science","ko":"컴퓨터과학","en":"Computer Science","skip":0}},
    "staticQueryHashes": ["1903006949","2193720160"]}