{
    "componentChunkName": "component---src-templates-home-js",
    "path": "/page/8",
    "result": {"data":{"allMdx":{"nodes":[{"frontmatter":{"title":"개발 블로그 개발 후기","description":"블로그 버전 1의 개발을 완료하였습니다. 10일 정도 작업을 하였고 현재 도메인을 구글과 네이버 검색엔진에 각각 등록한 상황입니다. 수정하거나 추가하고 싶은 기능들이 아직도 꾸준히 생겨나고 있으나 이대로는 끝이 없을 듯 하여 일단 첫 글을 남기고자 합니다.","date":"January 5, 2022","category":"essay","tags":["project","gatsby","retrospective"],"hero_image":{"childImageSharp":{"gatsbyImageData":{"layout":"constrained","backgroundColor":"#080808","images":{"fallback":{"src":"/static/04c139afdd80eec4d3c73c9568296a40/12a3e/bugoverdose-open-graph.png","srcSet":"/static/04c139afdd80eec4d3c73c9568296a40/9d9e0/bugoverdose-open-graph.png 225w,\n/static/04c139afdd80eec4d3c73c9568296a40/cc174/bugoverdose-open-graph.png 450w,\n/static/04c139afdd80eec4d3c73c9568296a40/12a3e/bugoverdose-open-graph.png 900w","sizes":"(min-width: 900px) 900px, 100vw"},"sources":[{"srcSet":"/static/04c139afdd80eec4d3c73c9568296a40/3f003/bugoverdose-open-graph.webp 225w,\n/static/04c139afdd80eec4d3c73c9568296a40/ba134/bugoverdose-open-graph.webp 450w,\n/static/04c139afdd80eec4d3c73c9568296a40/e7f7d/bugoverdose-open-graph.webp 900w","type":"image/webp","sizes":"(min-width: 900px) 900px, 100vw"}]},"width":900,"height":450}}},"hero_image_alt":"starting a blog image"},"id":"3abe899f-4cb8-58d7-9a1b-0565a096a8ac","slug":"essay/starting-a-dev-blog/"}],"pageInfo":{"currentPage":8,"hasNextPage":false,"hasPreviousPage":true,"pageCount":8,"totalCount":71}}},"pageContext":{"skip":70}},
    "staticQueryHashes": ["1903006949","2193720160"]}